(export (version D)
  (design
    (source /home/ahmed/Desktop/AGROAM/PCBcs/PCBcsMR/PCBcs.sch)
    (date "Sun 08 Jul 2018 10:43:41 PM WEST")
    (tool "Eeschema 5.0.0-rc2-unknown-3c7b91b~65~ubuntu18.04.1")
    (sheet (number 1) (name /) (tstamps /)
      (title_block
        (title)
        (company)
        (rev)
        (date)
        (source PCBcs.sch)
        (comment (number 1) (value ""))
        (comment (number 2) (value ""))
        (comment (number 3) (value ""))
        (comment (number 4) (value "")))))
  (components
    (comp (ref R1)
      (value 1k)
      (footprint Resistor_SMD:R_1206_3216Metric_Pad1.39x1.80mm_HandSolder)
      (datasheet ~)
      (libsource (lib Device) (part R) (description Resistor))
      (sheetpath (names /) (tstamps /))
      (tstamp 5B085832))
    (comp (ref R2)
      (value 1k)
      (footprint Resistor_SMD:R_1206_3216Metric_Pad1.39x1.80mm_HandSolder)
      (datasheet ~)
      (libsource (lib Device) (part R) (description Resistor))
      (sheetpath (names /) (tstamps /))
      (tstamp 5B085849))
    (comp (ref L1)
      (value LED)
      (footprint LED_SMD:LED_1206_3216Metric_Pad1.22x1.80mm_HandSolder)
      (datasheet ~)
      (libsource (lib Device) (part LED) (description "LED generic"))
      (sheetpath (names /) (tstamps /))
      (tstamp 5B085863))
    (comp (ref D1)
      (value D)
      (footprint Diode_SMD:D_1206_3216Metric_Pad1.22x1.80mm_HandSolder)
      (datasheet ~)
      (libsource (lib Device) (part D) (description Diode))
      (sheetpath (names /) (tstamps /))
      (tstamp 5B085870))
    (comp (ref R3)
      (value 1k)
      (footprint Resistor_SMD:R_1206_3216Metric_Pad1.39x1.80mm_HandSolder)
      (datasheet ~)
      (libsource (lib Device) (part R) (description Resistor))
      (sheetpath (names /) (tstamps /))
      (tstamp 5B09AA50))
    (comp (ref R4)
      (value 1k)
      (footprint Resistor_SMD:R_1206_3216Metric_Pad1.39x1.80mm_HandSolder)
      (datasheet ~)
      (libsource (lib Device) (part R) (description Resistor))
      (sheetpath (names /) (tstamps /))
      (tstamp 5B09AA65))
    (comp (ref L2)
      (value LED)
      (footprint LED_SMD:LED_1206_3216Metric_Pad1.22x1.80mm_HandSolder)
      (datasheet ~)
      (libsource (lib Device) (part LED) (description "LED generic"))
      (sheetpath (names /) (tstamps /))
      (tstamp 5B09AA7F))
    (comp (ref D2)
      (value D)
      (footprint Diode_SMD:D_1206_3216Metric_Pad1.22x1.80mm_HandSolder)
      (datasheet ~)
      (libsource (lib Device) (part D) (description Diode))
      (sheetpath (names /) (tstamps /))
      (tstamp 5B09AA8C))
    (comp (ref R5)
      (value 1k)
      (footprint Resistor_SMD:R_1206_3216Metric_Pad1.39x1.80mm_HandSolder)
      (datasheet ~)
      (libsource (lib Device) (part R) (description Resistor))
      (sheetpath (names /) (tstamps /))
      (tstamp 5B09AC64))
    (comp (ref R6)
      (value R)
      (footprint Resistor_SMD:R_1206_3216Metric_Pad1.39x1.80mm_HandSolder)
      (datasheet ~)
      (libsource (lib Device) (part R) (description Resistor))
      (sheetpath (names /) (tstamps /))
      (tstamp 5B09AC79))
    (comp (ref L3)
      (value LED)
      (footprint LED_SMD:LED_1206_3216Metric_Pad1.22x1.80mm_HandSolder)
      (datasheet ~)
      (libsource (lib Device) (part LED) (description "LED generic"))
      (sheetpath (names /) (tstamps /))
      (tstamp 5B09AC93))
    (comp (ref D3)
      (value D)
      (footprint Diode_SMD:D_1206_3216Metric_Pad1.22x1.80mm_HandSolder)
      (datasheet ~)
      (libsource (lib Device) (part D) (description Diode))
      (sheetpath (names /) (tstamps /))
      (tstamp 5B09ACA0))
    (comp (ref R7)
      (value 1k)
      (footprint Resistor_SMD:R_1206_3216Metric_Pad1.39x1.80mm_HandSolder)
      (datasheet ~)
      (libsource (lib Device) (part R) (description Resistor))
      (sheetpath (names /) (tstamps /))
      (tstamp 5B09B3B9))
    (comp (ref R8)
      (value 1k)
      (footprint Resistor_SMD:R_1206_3216Metric_Pad1.39x1.80mm_HandSolder)
      (datasheet ~)
      (libsource (lib Device) (part R) (description Resistor))
      (sheetpath (names /) (tstamps /))
      (tstamp 5B09B3CE))
    (comp (ref L4)
      (value LED)
      (footprint LED_SMD:LED_1206_3216Metric_Pad1.22x1.80mm_HandSolder)
      (datasheet ~)
      (libsource (lib Device) (part LED) (description "LED generic"))
      (sheetpath (names /) (tstamps /))
      (tstamp 5B09B3E8))
    (comp (ref D4)
      (value D)
      (footprint Diode_SMD:D_1206_3216Metric_Pad1.22x1.80mm_HandSolder)
      (datasheet ~)
      (libsource (lib Device) (part D) (description Diode))
      (sheetpath (names /) (tstamps /))
      (tstamp 5B09B3F5))
    (comp (ref R9)
      (value 1k)
      (footprint Resistor_SMD:R_1206_3216Metric_Pad1.39x1.80mm_HandSolder)
      (datasheet ~)
      (libsource (lib Device) (part R) (description Resistor))
      (sheetpath (names /) (tstamps /))
      (tstamp 5B09BA26))
    (comp (ref R10)
      (value 1k)
      (footprint Resistor_SMD:R_1206_3216Metric_Pad1.39x1.80mm_HandSolder)
      (datasheet ~)
      (libsource (lib Device) (part R) (description Resistor))
      (sheetpath (names /) (tstamps /))
      (tstamp 5B09BA3B))
    (comp (ref L5)
      (value LED)
      (footprint LED_SMD:LED_1206_3216Metric_Pad1.22x1.80mm_HandSolder)
      (datasheet ~)
      (libsource (lib Device) (part LED) (description "LED generic"))
      (sheetpath (names /) (tstamps /))
      (tstamp 5B09BA55))
    (comp (ref D5)
      (value D)
      (footprint Diode_SMD:D_1206_3216Metric_Pad1.22x1.80mm_HandSolder)
      (datasheet ~)
      (libsource (lib Device) (part D) (description Diode))
      (sheetpath (names /) (tstamps /))
      (tstamp 5B09BA62))
    (comp (ref R11)
      (value 1k)
      (footprint Resistor_SMD:R_1206_3216Metric_Pad1.39x1.80mm_HandSolder)
      (datasheet ~)
      (libsource (lib Device) (part R) (description Resistor))
      (sheetpath (names /) (tstamps /))
      (tstamp 5B09C313))
    (comp (ref R12)
      (value 1k)
      (footprint Resistor_SMD:R_1206_3216Metric_Pad1.39x1.80mm_HandSolder)
      (datasheet ~)
      (libsource (lib Device) (part R) (description Resistor))
      (sheetpath (names /) (tstamps /))
      (tstamp 5B09C328))
    (comp (ref L6)
      (value LED)
      (footprint LED_SMD:LED_1206_3216Metric_Pad1.22x1.80mm_HandSolder)
      (datasheet ~)
      (libsource (lib Device) (part LED) (description "LED generic"))
      (sheetpath (names /) (tstamps /))
      (tstamp 5B09C342))
    (comp (ref D6)
      (value D)
      (footprint Diode_SMD:D_1206_3216Metric_Pad1.22x1.80mm_HandSolder)
      (datasheet ~)
      (libsource (lib Device) (part D) (description Diode))
      (sheetpath (names /) (tstamps /))
      (tstamp 5B09C34F))
    (comp (ref R13)
      (value 1k)
      (footprint Resistor_SMD:R_1206_3216Metric_Pad1.39x1.80mm_HandSolder)
      (datasheet ~)
      (libsource (lib Device) (part R) (description Resistor))
      (sheetpath (names /) (tstamps /))
      (tstamp 5B09CEF0))
    (comp (ref R14)
      (value 1k)
      (footprint Resistor_SMD:R_1206_3216Metric_Pad1.39x1.80mm_HandSolder)
      (datasheet ~)
      (libsource (lib Device) (part R) (description Resistor))
      (sheetpath (names /) (tstamps /))
      (tstamp 5B09CF05))
    (comp (ref L7)
      (value LED)
      (footprint LED_SMD:LED_1206_3216Metric_Pad1.22x1.80mm_HandSolder)
      (datasheet ~)
      (libsource (lib Device) (part LED) (description "LED generic"))
      (sheetpath (names /) (tstamps /))
      (tstamp 5B09CF1F))
    (comp (ref D7)
      (value D)
      (footprint Diode_SMD:D_1206_3216Metric_Pad1.22x1.80mm_HandSolder)
      (datasheet ~)
      (libsource (lib Device) (part D) (description Diode))
      (sheetpath (names /) (tstamps /))
      (tstamp 5B09CF2C))
    (comp (ref R15)
      (value 1k)
      (footprint Resistor_SMD:R_1206_3216Metric_Pad1.39x1.80mm_HandSolder)
      (datasheet ~)
      (libsource (lib Device) (part R) (description Resistor))
      (sheetpath (names /) (tstamps /))
      (tstamp 5B09E014))
    (comp (ref R16)
      (value 1k)
      (footprint Resistor_SMD:R_1206_3216Metric_Pad1.39x1.80mm_HandSolder)
      (datasheet ~)
      (libsource (lib Device) (part R) (description Resistor))
      (sheetpath (names /) (tstamps /))
      (tstamp 5B09E029))
    (comp (ref L8)
      (value LED)
      (footprint LED_SMD:LED_1206_3216Metric_Pad1.22x1.80mm_HandSolder)
      (datasheet ~)
      (libsource (lib Device) (part LED) (description "LED generic"))
      (sheetpath (names /) (tstamps /))
      (tstamp 5B09E043))
    (comp (ref D8)
      (value D)
      (footprint Diode_SMD:D_1206_3216Metric_Pad1.22x1.80mm_HandSolder)
      (datasheet ~)
      (libsource (lib Device) (part D) (description Diode))
      (sheetpath (names /) (tstamps /))
      (tstamp 5B09E050))
    (comp (ref R17)
      (value 1k)
      (footprint Resistor_SMD:R_1206_3216Metric_Pad1.39x1.80mm_HandSolder)
      (datasheet ~)
      (libsource (lib Device) (part R) (description Resistor))
      (sheetpath (names /) (tstamps /))
      (tstamp 5B09F607))
    (comp (ref R18)
      (value R)
      (footprint Resistor_SMD:R_1206_3216Metric_Pad1.39x1.80mm_HandSolder)
      (datasheet ~)
      (libsource (lib Device) (part R) (description Resistor))
      (sheetpath (names /) (tstamps /))
      (tstamp 5B09F61C))
    (comp (ref L9)
      (value LED)
      (footprint LED_SMD:LED_1206_3216Metric_Pad1.22x1.80mm_HandSolder)
      (datasheet ~)
      (libsource (lib Device) (part LED) (description "LED generic"))
      (sheetpath (names /) (tstamps /))
      (tstamp 5B09F636))
    (comp (ref D9)
      (value D)
      (footprint Diode_SMD:D_1206_3216Metric_Pad1.22x1.80mm_HandSolder)
      (datasheet ~)
      (libsource (lib Device) (part D) (description Diode))
      (sheetpath (names /) (tstamps /))
      (tstamp 5B09F643))
    (comp (ref R19)
      (value 1k)
      (footprint Resistor_SMD:R_1206_3216Metric_Pad1.39x1.80mm_HandSolder)
      (datasheet ~)
      (libsource (lib Device) (part R) (description Resistor))
      (sheetpath (names /) (tstamps /))
      (tstamp 5B0A3694))
    (comp (ref R20)
      (value 1k)
      (footprint Resistor_SMD:R_1206_3216Metric_Pad1.39x1.80mm_HandSolder)
      (datasheet ~)
      (libsource (lib Device) (part R) (description Resistor))
      (sheetpath (names /) (tstamps /))
      (tstamp 5B0A36A9))
    (comp (ref L10)
      (value LED)
      (footprint LED_SMD:LED_1206_3216Metric_Pad1.22x1.80mm_HandSolder)
      (datasheet ~)
      (libsource (lib Device) (part LED) (description "LED generic"))
      (sheetpath (names /) (tstamps /))
      (tstamp 5B0A36C3))
    (comp (ref D10)
      (value D)
      (footprint Diode_SMD:D_1206_3216Metric_Pad1.22x1.80mm_HandSolder)
      (datasheet ~)
      (libsource (lib Device) (part D) (description Diode))
      (sheetpath (names /) (tstamps /))
      (tstamp 5B0A36D0))
    (comp (ref Q3)
      (value BC817)
      (footprint Package_TO_SOT_SMD:SOT-23)
      (datasheet http://www.fairchildsemi.com/ds/BC/BC817.pdf)
      (libsource (lib Transistor_BJT) (part BC817) (description "0.8A Ic, 45V Vce, NPN Transistor, SOT-23"))
      (sheetpath (names /) (tstamps /))
      (tstamp 5B0C5ACA))
    (comp (ref Q2)
      (value BC817)
      (footprint Package_TO_SOT_SMD:SOT-23)
      (datasheet http://www.fairchildsemi.com/ds/BC/BC817.pdf)
      (libsource (lib Transistor_BJT) (part BC817) (description "0.8A Ic, 45V Vce, NPN Transistor, SOT-23"))
      (sheetpath (names /) (tstamps /))
      (tstamp 5B0C6B7C))
    (comp (ref Q4)
      (value BC817)
      (footprint Package_TO_SOT_SMD:SOT-23)
      (datasheet http://www.fairchildsemi.com/ds/BC/BC817.pdf)
      (libsource (lib Transistor_BJT) (part BC817) (description "0.8A Ic, 45V Vce, NPN Transistor, SOT-23"))
      (sheetpath (names /) (tstamps /))
      (tstamp 5B0C7C29))
    (comp (ref Q5)
      (value BC817)
      (footprint Package_TO_SOT_SMD:SOT-23)
      (datasheet http://www.fairchildsemi.com/ds/BC/BC817.pdf)
      (libsource (lib Transistor_BJT) (part BC817) (description "0.8A Ic, 45V Vce, NPN Transistor, SOT-23"))
      (sheetpath (names /) (tstamps /))
      (tstamp 5B0C7CFD))
    (comp (ref Q6)
      (value BC817)
      (footprint Package_TO_SOT_SMD:SOT-23)
      (datasheet http://www.fairchildsemi.com/ds/BC/BC817.pdf)
      (libsource (lib Transistor_BJT) (part BC817) (description "0.8A Ic, 45V Vce, NPN Transistor, SOT-23"))
      (sheetpath (names /) (tstamps /))
      (tstamp 5B0C7DE1))
    (comp (ref Q7)
      (value BC817)
      (footprint Package_TO_SOT_SMD:SOT-23)
      (datasheet http://www.fairchildsemi.com/ds/BC/BC817.pdf)
      (libsource (lib Transistor_BJT) (part BC817) (description "0.8A Ic, 45V Vce, NPN Transistor, SOT-23"))
      (sheetpath (names /) (tstamps /))
      (tstamp 5B0C805F))
    (comp (ref Q8)
      (value BC817)
      (footprint Package_TO_SOT_SMD:SOT-23)
      (datasheet http://www.fairchildsemi.com/ds/BC/BC817.pdf)
      (libsource (lib Transistor_BJT) (part BC817) (description "0.8A Ic, 45V Vce, NPN Transistor, SOT-23"))
      (sheetpath (names /) (tstamps /))
      (tstamp 5B0C815B))
    (comp (ref Q9)
      (value BC817)
      (footprint Package_TO_SOT_SMD:SOT-23)
      (datasheet http://www.fairchildsemi.com/ds/BC/BC817.pdf)
      (libsource (lib Transistor_BJT) (part BC817) (description "0.8A Ic, 45V Vce, NPN Transistor, SOT-23"))
      (sheetpath (names /) (tstamps /))
      (tstamp 5B0C8237))
    (comp (ref Q10)
      (value BC817)
      (footprint Package_TO_SOT_SMD:SOT-23)
      (datasheet http://www.fairchildsemi.com/ds/BC/BC817.pdf)
      (libsource (lib Transistor_BJT) (part BC817) (description "0.8A Ic, 45V Vce, NPN Transistor, SOT-23"))
      (sheetpath (names /) (tstamps /))
      (tstamp 5B0C8874))
    (comp (ref U1)
      (value TLP185)
      (footprint Package_SO:MFSOP6-4_4.4x3.6mm_P1.27mm)
      (datasheet https://toshiba.semicon-storage.com/info/docget.jsp?did=11791&prodName=TLP185)
      (libsource (lib Isolator) (part TLP185) (description "DC Optocoupler, Vce 80V, CTR 50-100%, MFSOP6"))
      (sheetpath (names /) (tstamps /))
      (tstamp 5B101859))
    (comp (ref U2)
      (value TLP185)
      (footprint Package_SO:MFSOP6-4_4.4x3.6mm_P1.27mm)
      (datasheet https://toshiba.semicon-storage.com/info/docget.jsp?did=11791&prodName=TLP185)
      (libsource (lib Isolator) (part TLP185) (description "DC Optocoupler, Vce 80V, CTR 50-100%, MFSOP6"))
      (sheetpath (names /) (tstamps /))
      (tstamp 5B1080BF))
    (comp (ref U3)
      (value TLP185)
      (footprint Package_SO:MFSOP6-4_4.4x3.6mm_P1.27mm)
      (datasheet https://toshiba.semicon-storage.com/info/docget.jsp?did=11791&prodName=TLP185)
      (libsource (lib Isolator) (part TLP185) (description "DC Optocoupler, Vce 80V, CTR 50-100%, MFSOP6"))
      (sheetpath (names /) (tstamps /))
      (tstamp 5B1090A6))
    (comp (ref U4)
      (value TLP185)
      (footprint Package_SO:MFSOP6-4_4.4x3.6mm_P1.27mm)
      (datasheet https://toshiba.semicon-storage.com/info/docget.jsp?did=11791&prodName=TLP185)
      (libsource (lib Isolator) (part TLP185) (description "DC Optocoupler, Vce 80V, CTR 50-100%, MFSOP6"))
      (sheetpath (names /) (tstamps /))
      (tstamp 5B10A2B6))
    (comp (ref U5)
      (value TLP185)
      (footprint Package_SO:MFSOP6-4_4.4x3.6mm_P1.27mm)
      (datasheet https://toshiba.semicon-storage.com/info/docget.jsp?did=11791&prodName=TLP185)
      (libsource (lib Isolator) (part TLP185) (description "DC Optocoupler, Vce 80V, CTR 50-100%, MFSOP6"))
      (sheetpath (names /) (tstamps /))
      (tstamp 5B10A50A))
    (comp (ref U6)
      (value TLP185)
      (footprint Package_SO:MFSOP6-4_4.4x3.6mm_P1.27mm)
      (datasheet https://toshiba.semicon-storage.com/info/docget.jsp?did=11791&prodName=TLP185)
      (libsource (lib Isolator) (part TLP185) (description "DC Optocoupler, Vce 80V, CTR 50-100%, MFSOP6"))
      (sheetpath (names /) (tstamps /))
      (tstamp 5B10B482))
    (comp (ref U7)
      (value TLP185)
      (footprint Package_SO:MFSOP6-4_4.4x3.6mm_P1.27mm)
      (datasheet https://toshiba.semicon-storage.com/info/docget.jsp?did=11791&prodName=TLP185)
      (libsource (lib Isolator) (part TLP185) (description "DC Optocoupler, Vce 80V, CTR 50-100%, MFSOP6"))
      (sheetpath (names /) (tstamps /))
      (tstamp 5B10CD19))
    (comp (ref U8)
      (value TLP185)
      (footprint Package_SO:MFSOP6-4_4.4x3.6mm_P1.27mm)
      (datasheet https://toshiba.semicon-storage.com/info/docget.jsp?did=11791&prodName=TLP185)
      (libsource (lib Isolator) (part TLP185) (description "DC Optocoupler, Vce 80V, CTR 50-100%, MFSOP6"))
      (sheetpath (names /) (tstamps /))
      (tstamp 5B10D052))
    (comp (ref U9)
      (value TLP185)
      (footprint Package_SO:MFSOP6-4_4.4x3.6mm_P1.27mm)
      (datasheet https://toshiba.semicon-storage.com/info/docget.jsp?did=11791&prodName=TLP185)
      (libsource (lib Isolator) (part TLP185) (description "DC Optocoupler, Vce 80V, CTR 50-100%, MFSOP6"))
      (sheetpath (names /) (tstamps /))
      (tstamp 5B10E045))
    (comp (ref U10)
      (value TLP185)
      (footprint Package_SO:MFSOP6-4_4.4x3.6mm_P1.27mm)
      (datasheet https://toshiba.semicon-storage.com/info/docget.jsp?did=11791&prodName=TLP185)
      (libsource (lib Isolator) (part TLP185) (description "DC Optocoupler, Vce 80V, CTR 50-100%, MFSOP6"))
      (sheetpath (names /) (tstamps /))
      (tstamp 5B10F206))
    (comp (ref J11)
      (value Screw_Terminal_01x12)
      (footprint TerminalBlock_Phoenix:TerminalBlock_Phoenix_MKDS-1,5-12-5.08_1x12_P5.08mm_Horizontal)
      (datasheet ~)
      (libsource (lib Connector) (part Screw_Terminal_01x12) (description "Generic screw terminal, single row, 01x12, script generated (kicad-library-utils/schlib/autogen/connector/)"))
      (sheetpath (names /) (tstamps /))
      (tstamp 5B2A9CE4))
    (comp (ref K1)
      (value SANYOU_SRD_Form_C)
      (footprint Relay_THT:Relay_SPDT_SANYOU_SRD_Series_Form_C)
      (datasheet http://www.sanyourelay.ca/public/products/pdf/SRD.pdf)
      (libsource (lib Relay) (part SANYOU_SRD_Form_C) (description "Sanyo SRD relay, Single Pole Miniature Power Relay,"))
      (sheetpath (names /) (tstamps /))
      (tstamp 5B2AEECD))
    (comp (ref K2)
      (value SANYOU_SRD_Form_C)
      (footprint Relay_THT:Relay_SPDT_SANYOU_SRD_Series_Form_C)
      (datasheet http://www.sanyourelay.ca/public/products/pdf/SRD.pdf)
      (libsource (lib Relay) (part SANYOU_SRD_Form_C) (description "Sanyo SRD relay, Single Pole Miniature Power Relay,"))
      (sheetpath (names /) (tstamps /))
      (tstamp 5B2AF3A3))
    (comp (ref K3)
      (value SANYOU_SRD_Form_C)
      (footprint Relay_THT:Relay_SPDT_SANYOU_SRD_Series_Form_C)
      (datasheet http://www.sanyourelay.ca/public/products/pdf/SRD.pdf)
      (libsource (lib Relay) (part SANYOU_SRD_Form_C) (description "Sanyo SRD relay, Single Pole Miniature Power Relay,"))
      (sheetpath (names /) (tstamps /))
      (tstamp 5B2AF6DF))
    (comp (ref K4)
      (value SANYOU_SRD_Form_C)
      (footprint Relay_THT:Relay_SPDT_SANYOU_SRD_Series_Form_C)
      (datasheet http://www.sanyourelay.ca/public/products/pdf/SRD.pdf)
      (libsource (lib Relay) (part SANYOU_SRD_Form_C) (description "Sanyo SRD relay, Single Pole Miniature Power Relay,"))
      (sheetpath (names /) (tstamps /))
      (tstamp 5B2AF7BB))
    (comp (ref K5)
      (value SANYOU_SRD_Form_C)
      (footprint Relay_THT:Relay_SPDT_SANYOU_SRD_Series_Form_C)
      (datasheet http://www.sanyourelay.ca/public/products/pdf/SRD.pdf)
      (libsource (lib Relay) (part SANYOU_SRD_Form_C) (description "Sanyo SRD relay, Single Pole Miniature Power Relay,"))
      (sheetpath (names /) (tstamps /))
      (tstamp 5B2AF883))
    (comp (ref K6)
      (value SANYOU_SRD_Form_C)
      (footprint Relay_THT:Relay_SPDT_SANYOU_SRD_Series_Form_C)
      (datasheet http://www.sanyourelay.ca/public/products/pdf/SRD.pdf)
      (libsource (lib Relay) (part SANYOU_SRD_Form_C) (description "Sanyo SRD relay, Single Pole Miniature Power Relay,"))
      (sheetpath (names /) (tstamps /))
      (tstamp 5B2AF955))
    (comp (ref K9)
      (value SANYOU_SRD_Form_C)
      (footprint Relay_THT:Relay_SPDT_SANYOU_SRD_Series_Form_C)
      (datasheet http://www.sanyourelay.ca/public/products/pdf/SRD.pdf)
      (libsource (lib Relay) (part SANYOU_SRD_Form_C) (description "Sanyo SRD relay, Single Pole Miniature Power Relay,"))
      (sheetpath (names /) (tstamps /))
      (tstamp 5B2AFA41))
    (comp (ref K8)
      (value SANYOU_SRD_Form_C)
      (footprint Relay_THT:Relay_SPDT_SANYOU_SRD_Series_Form_C)
      (datasheet http://www.sanyourelay.ca/public/products/pdf/SRD.pdf)
      (libsource (lib Relay) (part SANYOU_SRD_Form_C) (description "Sanyo SRD relay, Single Pole Miniature Power Relay,"))
      (sheetpath (names /) (tstamps /))
      (tstamp 5B2AFB2B))
    (comp (ref K7)
      (value SANYOU_SRD_Form_C)
      (footprint Relay_THT:Relay_SPDT_SANYOU_SRD_Series_Form_C)
      (datasheet http://www.sanyourelay.ca/public/products/pdf/SRD.pdf)
      (libsource (lib Relay) (part SANYOU_SRD_Form_C) (description "Sanyo SRD relay, Single Pole Miniature Power Relay,"))
      (sheetpath (names /) (tstamps /))
      (tstamp 5B2AFBF9))
    (comp (ref K10)
      (value SANYOU_SRD_Form_C)
      (footprint Relay_THT:Relay_SPDT_SANYOU_SRD_Series_Form_C)
      (datasheet http://www.sanyourelay.ca/public/products/pdf/SRD.pdf)
      (libsource (lib Relay) (part SANYOU_SRD_Form_C) (description "Sanyo SRD relay, Single Pole Miniature Power Relay,"))
      (sheetpath (names /) (tstamps /))
      (tstamp 5B2AFCC9))
    (comp (ref Q1)
      (value BC817)
      (footprint Package_TO_SOT_SMD:SOT-23)
      (datasheet http://www.fairchildsemi.com/ds/BC/BC817.pdf)
      (libsource (lib Transistor_BJT) (part BC817) (description "0.8A Ic, 45V Vce, NPN Transistor, SOT-23"))
      (sheetpath (names /) (tstamps /))
      (tstamp 5B2BDEE2))
    (comp (ref J1)
      (value Conn_02x07_Odd_Even)
      (footprint Connector_IDC:IDC-Header_2x07_P2.54mm_Vertical)
      (datasheet ~)
      (libsource (lib Connector_Generic) (part Conn_02x07_Odd_Even) (description "Generic connector, double row, 02x07, odd/even pin numbering scheme (row 1 odd numbers, row 2 even numbers), script generated (kicad-library-utils/schlib/autogen/connector/)"))
      (sheetpath (names /) (tstamps /))
      (tstamp 5B2CDCFD)))
  (libparts
    (libpart (lib Connector) (part Screw_Terminal_01x12)
      (description "Generic screw terminal, single row, 01x12, script generated (kicad-library-utils/schlib/autogen/connector/)")
      (docs ~)
      (footprints
        (fp TerminalBlock*:*))
      (fields
        (field (name Reference) J)
        (field (name Value) Screw_Terminal_01x12))
      (pins
        (pin (num 1) (name Pin_1) (type passive))
        (pin (num 2) (name Pin_2) (type passive))
        (pin (num 3) (name Pin_3) (type passive))
        (pin (num 4) (name Pin_4) (type passive))
        (pin (num 5) (name Pin_5) (type passive))
        (pin (num 6) (name Pin_6) (type passive))
        (pin (num 7) (name Pin_7) (type passive))
        (pin (num 8) (name Pin_8) (type passive))
        (pin (num 9) (name Pin_9) (type passive))
        (pin (num 10) (name Pin_10) (type passive))
        (pin (num 11) (name Pin_11) (type passive))
        (pin (num 12) (name Pin_12) (type passive))))
    (libpart (lib Connector_Generic) (part Conn_02x07_Odd_Even)
      (description "Generic connector, double row, 02x07, odd/even pin numbering scheme (row 1 odd numbers, row 2 even numbers), script generated (kicad-library-utils/schlib/autogen/connector/)")
      (docs ~)
      (footprints
        (fp Connector*:*_2x??_*))
      (fields
        (field (name Reference) J)
        (field (name Value) Conn_02x07_Odd_Even))
      (pins
        (pin (num 1) (name Pin_1) (type passive))
        (pin (num 2) (name Pin_2) (type passive))
        (pin (num 3) (name Pin_3) (type passive))
        (pin (num 4) (name Pin_4) (type passive))
        (pin (num 5) (name Pin_5) (type passive))
        (pin (num 6) (name Pin_6) (type passive))
        (pin (num 7) (name Pin_7) (type passive))
        (pin (num 8) (name Pin_8) (type passive))
        (pin (num 9) (name Pin_9) (type passive))
        (pin (num 10) (name Pin_10) (type passive))
        (pin (num 11) (name Pin_11) (type passive))
        (pin (num 12) (name Pin_12) (type passive))
        (pin (num 13) (name Pin_13) (type passive))
        (pin (num 14) (name Pin_14) (type passive))))
    (libpart (lib Device) (part D)
      (description Diode)
      (docs ~)
      (footprints
        (fp TO-???*)
        (fp *SingleDiode)
        (fp *_Diode_*)
        (fp *SingleDiode*)
        (fp *:D_*))
      (fields
        (field (name Reference) D)
        (field (name Value) D))
      (pins
        (pin (num 1) (name K) (type passive))
        (pin (num 2) (name A) (type passive))))
    (libpart (lib Device) (part LED)
      (description "LED generic")
      (docs ~)
      (footprints
        (fp LED*)
        (fp LED_SMD:*)
        (fp LED_THT:*))
      (fields
        (field (name Reference) D)
        (field (name Value) LED))
      (pins
        (pin (num 1) (name K) (type passive))
        (pin (num 2) (name A) (type passive))))
    (libpart (lib Device) (part R)
      (description Resistor)
      (docs ~)
      (footprints
        (fp *:R_*))
      (fields
        (field (name Reference) R)
        (field (name Value) R))
      (pins
        (pin (num 1) (name ~) (type passive))
        (pin (num 2) (name ~) (type passive))))
    (libpart (lib Isolator) (part TLP185)
      (aliases
        (alias "TLP185(SE"))
      (description "DC Optocoupler, Vce 80V, CTR 50-100%, MFSOP6")
      (docs https://toshiba.semicon-storage.com/info/docget.jsp?did=11791&prodName=TLP185)
      (footprints
        (fp MFSOP6*4.4x3.6mm*P1.27mm*))
      (fields
        (field (name Reference) U)
        (field (name Value) TLP185)
        (field (name Footprint) Package_SO:MFSOP6-4_4.4x3.6mm_P1.27mm))
      (pins
        (pin (num 1) (name ~) (type passive))
        (pin (num 3) (name ~) (type passive))
        (pin (num 4) (name ~) (type passive))
        (pin (num 6) (name ~) (type passive))))
    (libpart (lib Relay) (part SANYOU_SRD_Form_C)
      (description "Sanyo SRD relay, Single Pole Miniature Power Relay,")
      (docs http://www.sanyourelay.ca/public/products/pdf/SRD.pdf)
      (footprints
        (fp Relay*SPDT*SANYOU*SRD*Series*Form*C*))
      (fields
        (field (name Reference) K)
        (field (name Value) SANYOU_SRD_Form_C)
        (field (name Footprint) Relay_THT:Relay_SPDT_SANYOU_SRD_Series_Form_C))
      (pins
        (pin (num 1) (name ~) (type passive))
        (pin (num 2) (name ~) (type passive))
        (pin (num 3) (name ~) (type passive))
        (pin (num 4) (name ~) (type passive))
        (pin (num 5) (name ~) (type passive))))
    (libpart (lib Transistor_BJT) (part BC817)
      (aliases
        (alias BC818)
        (alias BC847)
        (alias BC848)
        (alias BC849)
        (alias BC850)
        (alias MMBT3904)
        (alias MMBT5550L)
        (alias MMBT5551L))
      (description "0.8A Ic, 45V Vce, NPN Transistor, SOT-23")
      (docs http://www.fairchildsemi.com/ds/BC/BC817.pdf)
      (footprints
        (fp SOT?23*))
      (fields
        (field (name Reference) Q)
        (field (name Value) BC817)
        (field (name Footprint) Package_TO_SOT_SMD:SOT-23))
      (pins
        (pin (num 1) (name B) (type input))
        (pin (num 2) (name E) (type passive))
        (pin (num 3) (name C) (type passive)))))
  (libraries
    (library (logical Connector)
      (uri /usr/share/kicad/library/Connector.lib))
    (library (logical Connector_Generic)
      (uri /usr/share/kicad/library/Connector_Generic.lib))
    (library (logical Device)
      (uri /usr/share/kicad/library/Device.lib))
    (library (logical Isolator)
      (uri /usr/share/kicad/library/Isolator.lib))
    (library (logical Relay)
      (uri /usr/share/kicad/library/Relay.lib))
    (library (logical Transistor_BJT)
      (uri /usr/share/kicad/library/Transistor_BJT.lib)))
  (nets
    (net (code 1) (name "Net-(R7-Pad1)")
      (node (ref U4) (pin 1))
      (node (ref R7) (pin 1)))
    (net (code 2) (name "Net-(R6-Pad2)")
      (node (ref R6) (pin 2))
      (node (ref U3) (pin 4)))
    (net (code 3) (name "Net-(L3-Pad2)")
      (node (ref U3) (pin 3))
      (node (ref L3) (pin 2)))
    (net (code 4) (name "Net-(R5-Pad1)")
      (node (ref R5) (pin 1))
      (node (ref U3) (pin 1)))
    (net (code 5) (name "Net-(R4-Pad2)")
      (node (ref R4) (pin 2))
      (node (ref U2) (pin 4)))
    (net (code 6) (name "Net-(L2-Pad2)")
      (node (ref U2) (pin 3))
      (node (ref L2) (pin 2)))
    (net (code 7) (name "Net-(R3-Pad1)")
      (node (ref U2) (pin 1))
      (node (ref R3) (pin 1)))
    (net (code 8) (name "Net-(R2-Pad2)")
      (node (ref R2) (pin 2))
      (node (ref U1) (pin 4)))
    (net (code 9) (name "Net-(L1-Pad2)")
      (node (ref L1) (pin 2))
      (node (ref U1) (pin 3)))
    (net (code 10) (name "Net-(R1-Pad1)")
      (node (ref R1) (pin 1))
      (node (ref U1) (pin 1)))
    (net (code 11) (name "Net-(L4-Pad2)")
      (node (ref L4) (pin 2))
      (node (ref U4) (pin 3)))
    (net (code 12) (name "Net-(D10-Pad2)")
      (node (ref D10) (pin 2))
      (node (ref K10) (pin 5))
      (node (ref Q10) (pin 3)))
    (net (code 13) (name "Net-(Q10-Pad1)")
      (node (ref R20) (pin 1))
      (node (ref Q10) (pin 1)))
    (net (code 14) (name "Net-(D9-Pad2)")
      (node (ref K9) (pin 5))
      (node (ref D9) (pin 2))
      (node (ref Q9) (pin 3)))
    (net (code 15) (name "Net-(Q9-Pad1)")
      (node (ref R18) (pin 1))
      (node (ref Q9) (pin 1)))
    (net (code 16) (name "Net-(R14-Pad2)")
      (node (ref R14) (pin 2))
      (node (ref U7) (pin 4)))
    (net (code 17) (name "Net-(R20-Pad2)")
      (node (ref R20) (pin 2))
      (node (ref U10) (pin 4)))
    (net (code 18) (name "Net-(L10-Pad2)")
      (node (ref U10) (pin 3))
      (node (ref L10) (pin 2)))
    (net (code 19) (name "Net-(R19-Pad1)")
      (node (ref R19) (pin 1))
      (node (ref U10) (pin 1)))
    (net (code 20) (name "Net-(L9-Pad2)")
      (node (ref U9) (pin 3))
      (node (ref L9) (pin 2)))
    (net (code 21) (name "Net-(R17-Pad1)")
      (node (ref U9) (pin 1))
      (node (ref R17) (pin 1)))
    (net (code 22) (name "Net-(R16-Pad2)")
      (node (ref U8) (pin 4))
      (node (ref R16) (pin 2)))
    (net (code 23) (name "Net-(L8-Pad2)")
      (node (ref U8) (pin 3))
      (node (ref L8) (pin 2)))
    (net (code 24) (name "Net-(R15-Pad1)")
      (node (ref U8) (pin 1))
      (node (ref R15) (pin 1)))
    (net (code 25) (name "Net-(Q8-Pad1)")
      (node (ref Q8) (pin 1))
      (node (ref R16) (pin 1)))
    (net (code 26) (name "Net-(L7-Pad2)")
      (node (ref U7) (pin 3))
      (node (ref L7) (pin 2)))
    (net (code 27) (name "Net-(R13-Pad1)")
      (node (ref R13) (pin 1))
      (node (ref U7) (pin 1)))
    (net (code 28) (name "Net-(R12-Pad2)")
      (node (ref R12) (pin 2))
      (node (ref U6) (pin 4)))
    (net (code 29) (name "Net-(L6-Pad2)")
      (node (ref U6) (pin 3))
      (node (ref L6) (pin 2)))
    (net (code 30) (name "Net-(R11-Pad1)")
      (node (ref R11) (pin 1))
      (node (ref U6) (pin 1)))
    (net (code 31) (name "Net-(R10-Pad2)")
      (node (ref U5) (pin 4))
      (node (ref R10) (pin 2)))
    (net (code 32) (name "Net-(L5-Pad2)")
      (node (ref U5) (pin 3))
      (node (ref L5) (pin 2)))
    (net (code 33) (name "Net-(R9-Pad1)")
      (node (ref U5) (pin 1))
      (node (ref R9) (pin 1)))
    (net (code 34) (name "Net-(R8-Pad2)")
      (node (ref U4) (pin 4))
      (node (ref R8) (pin 2)))
    (net (code 35) (name DIN_10)
      (node (ref R19) (pin 2))
      (node (ref J1) (pin 14)))
    (net (code 36) (name "Net-(D7-Pad2)")
      (node (ref D7) (pin 2))
      (node (ref K7) (pin 5))
      (node (ref Q7) (pin 3)))
    (net (code 37) (name "Net-(Q7-Pad1)")
      (node (ref R14) (pin 1))
      (node (ref Q7) (pin 1)))
    (net (code 38) (name "Net-(D6-Pad2)")
      (node (ref K6) (pin 5))
      (node (ref Q6) (pin 3))
      (node (ref D6) (pin 2)))
    (net (code 39) (name "Net-(Q6-Pad1)")
      (node (ref Q6) (pin 1))
      (node (ref R12) (pin 1)))
    (net (code 40) (name "Net-(D5-Pad2)")
      (node (ref K5) (pin 5))
      (node (ref Q5) (pin 3))
      (node (ref D5) (pin 2)))
    (net (code 41) (name "Net-(Q5-Pad1)")
      (node (ref R10) (pin 1))
      (node (ref Q5) (pin 1)))
    (net (code 42) (name "Net-(D4-Pad2)")
      (node (ref D4) (pin 2))
      (node (ref K4) (pin 5))
      (node (ref Q4) (pin 3)))
    (net (code 43) (name "Net-(Q4-Pad1)")
      (node (ref Q4) (pin 1))
      (node (ref R8) (pin 1)))
    (net (code 44) (name "Net-(D2-Pad2)")
      (node (ref Q2) (pin 3))
      (node (ref D2) (pin 2))
      (node (ref K2) (pin 5)))
    (net (code 45) (name "Net-(Q2-Pad1)")
      (node (ref Q2) (pin 1))
      (node (ref R4) (pin 1)))
    (net (code 46) (name "Net-(D3-Pad2)")
      (node (ref K3) (pin 5))
      (node (ref Q3) (pin 3))
      (node (ref D3) (pin 2)))
    (net (code 47) (name "Net-(Q3-Pad1)")
      (node (ref Q3) (pin 1))
      (node (ref R6) (pin 1)))
    (net (code 48) (name "Net-(K8-Pad4)")
      (node (ref K8) (pin 4)))
    (net (code 49) (name "Net-(K10-Pad4)")
      (node (ref K10) (pin 4)))
    (net (code 50) (name NO_10)
      (node (ref K10) (pin 3))
      (node (ref J11) (pin 10)))
    (net (code 51) (name COM)
      (node (ref K1) (pin 1))
      (node (ref K6) (pin 1))
      (node (ref K10) (pin 1))
      (node (ref K4) (pin 1))
      (node (ref J11) (pin 11))
      (node (ref J11) (pin 12))
      (node (ref K5) (pin 1))
      (node (ref K7) (pin 1))
      (node (ref K3) (pin 1))
      (node (ref K2) (pin 1))
      (node (ref K8) (pin 1))
      (node (ref K9) (pin 1)))
    (net (code 52) (name "Net-(K7-Pad4)")
      (node (ref K7) (pin 4)))
    (net (code 53) (name "Net-(K9-Pad4)")
      (node (ref K9) (pin 4)))
    (net (code 54) (name "Net-(K6-Pad4)")
      (node (ref K6) (pin 4)))
    (net (code 55) (name GND)
      (node (ref Q10) (pin 2))
      (node (ref L3) (pin 1))
      (node (ref Q3) (pin 2))
      (node (ref Q9) (pin 2))
      (node (ref Q2) (pin 2))
      (node (ref Q7) (pin 2))
      (node (ref Q6) (pin 2))
      (node (ref Q5) (pin 2))
      (node (ref L2) (pin 1))
      (node (ref L8) (pin 1))
      (node (ref Q8) (pin 2))
      (node (ref Q4) (pin 2))
      (node (ref L7) (pin 1))
      (node (ref J1) (pin 3))
      (node (ref Q1) (pin 2))
      (node (ref L6) (pin 1))
      (node (ref L9) (pin 1))
      (node (ref L1) (pin 1))
      (node (ref L4) (pin 1))
      (node (ref L5) (pin 1))
      (node (ref L10) (pin 1))
      (node (ref J1) (pin 1)))
    (net (code 56) (name DIN_8)
      (node (ref R15) (pin 2))
      (node (ref J1) (pin 12)))
    (net (code 57) (name DIN_6)
      (node (ref J1) (pin 10))
      (node (ref R11) (pin 2)))
    (net (code 58) (name DIN_5)
      (node (ref J1) (pin 9))
      (node (ref R9) (pin 2)))
    (net (code 59) (name DIN_4)
      (node (ref R7) (pin 2))
      (node (ref J1) (pin 8)))
    (net (code 60) (name DIN_3)
      (node (ref R5) (pin 2))
      (node (ref J1) (pin 7)))
    (net (code 61) (name DIN_2)
      (node (ref J1) (pin 6))
      (node (ref R3) (pin 2)))
    (net (code 62) (name DIN_1)
      (node (ref J1) (pin 5))
      (node (ref R1) (pin 2)))
    (net (code 63) (name 5VCC)
      (node (ref D5) (pin 1))
      (node (ref D6) (pin 1))
      (node (ref D7) (pin 1))
      (node (ref D8) (pin 1))
      (node (ref D9) (pin 1))
      (node (ref U2) (pin 6))
      (node (ref K9) (pin 2))
      (node (ref U1) (pin 6))
      (node (ref J1) (pin 4))
      (node (ref J1) (pin 2))
      (node (ref K1) (pin 2))
      (node (ref K8) (pin 2))
      (node (ref K6) (pin 2))
      (node (ref K5) (pin 2))
      (node (ref K4) (pin 2))
      (node (ref K3) (pin 2))
      (node (ref K2) (pin 2))
      (node (ref D10) (pin 1))
      (node (ref U9) (pin 6))
      (node (ref U8) (pin 6))
      (node (ref U7) (pin 6))
      (node (ref U6) (pin 6))
      (node (ref U5) (pin 6))
      (node (ref U4) (pin 6))
      (node (ref U3) (pin 6))
      (node (ref U10) (pin 6))
      (node (ref K10) (pin 2))
      (node (ref K7) (pin 2))
      (node (ref D4) (pin 1))
      (node (ref D1) (pin 1))
      (node (ref D2) (pin 1))
      (node (ref D3) (pin 1)))
    (net (code 64) (name "Net-(D1-Pad2)")
      (node (ref K1) (pin 5))
      (node (ref D1) (pin 2))
      (node (ref Q1) (pin 3)))
    (net (code 65) (name "Net-(Q1-Pad1)")
      (node (ref Q1) (pin 1))
      (node (ref R2) (pin 1)))
    (net (code 66) (name NO_1)
      (node (ref K1) (pin 3))
      (node (ref J11) (pin 1)))
    (net (code 67) (name "Net-(K1-Pad4)")
      (node (ref K1) (pin 4)))
    (net (code 68) (name NO_9)
      (node (ref K9) (pin 3))
      (node (ref J11) (pin 9)))
    (net (code 69) (name NO_8)
      (node (ref J11) (pin 8))
      (node (ref K8) (pin 3)))
    (net (code 70) (name NO_7)
      (node (ref J11) (pin 7))
      (node (ref K7) (pin 3)))
    (net (code 71) (name NO_6)
      (node (ref K6) (pin 3))
      (node (ref J11) (pin 6)))
    (net (code 72) (name NO_5)
      (node (ref K5) (pin 3))
      (node (ref J11) (pin 5)))
    (net (code 73) (name NO_4)
      (node (ref J11) (pin 4))
      (node (ref K4) (pin 3)))
    (net (code 74) (name NO_3)
      (node (ref K3) (pin 3))
      (node (ref J11) (pin 3)))
    (net (code 75) (name NO_2)
      (node (ref J11) (pin 2))
      (node (ref K2) (pin 3)))
    (net (code 76) (name "Net-(K5-Pad4)")
      (node (ref K5) (pin 4)))
    (net (code 77) (name "Net-(K4-Pad4)")
      (node (ref K4) (pin 4)))
    (net (code 78) (name "Net-(K3-Pad4)")
      (node (ref K3) (pin 4)))
    (net (code 79) (name "Net-(K2-Pad4)")
      (node (ref K2) (pin 4)))
    (net (code 80) (name "Net-(D8-Pad2)")
      (node (ref Q8) (pin 3))
      (node (ref K8) (pin 5))
      (node (ref D8) (pin 2)))
    (net (code 81) (name "Net-(R18-Pad2)")
      (node (ref R18) (pin 2))
      (node (ref U9) (pin 4)))
    (net (code 82) (name DIN_9)
      (node (ref J1) (pin 13))
      (node (ref R17) (pin 2)))
    (net (code 83) (name DIN_7)
      (node (ref R13) (pin 2))
      (node (ref J1) (pin 11)))))