EESchema Schematic File Version 4
LIBS:PCBcs-cache
EELAYER 26 0
EELAYER END
$Descr A4 11693 8268
encoding utf-8
Sheet 1 1
Title ""
Date ""
Rev ""
Comp ""
Comment1 ""
Comment2 ""
Comment3 ""
Comment4 ""
$EndDescr
$Comp
L Device:R R1
U 1 1 5B085832
P 900 1650
F 0 "R1" V 693 1650 50  0000 C CNN
F 1 "1k" V 784 1650 50  0000 C CNN
F 2 "Resistor_SMD:R_1206_3216Metric_Pad1.39x1.80mm_HandSolder" V 830 1650 50  0001 C CNN
F 3 "~" H 900 1650 50  0001 C CNN
	1    900  1650
	0    1    1    0   
$EndComp
Text GLabel 750  1650 1    50   Input ~ 0
DIN_1
$Comp
L power:GND #PWR0101
U 1 1 5B08583B
P 750 1850
F 0 "#PWR0101" H 750 1600 50  0001 C CNN
F 1 "GND" H 755 1677 50  0000 C CNN
F 2 "" H 750 1850 50  0001 C CNN
F 3 "" H 750 1850 50  0001 C CNN
	1    750  1850
	1    0    0    -1  
$EndComp
$Comp
L Device:R R2
U 1 1 5B085849
P 1950 2150
F 0 "R2" V 1743 2150 50  0000 C CNN
F 1 "1k" V 1834 2150 50  0000 C CNN
F 2 "Resistor_SMD:R_1206_3216Metric_Pad1.39x1.80mm_HandSolder" V 1880 2150 50  0001 C CNN
F 3 "~" H 1950 2150 50  0001 C CNN
	1    1950 2150
	0    1    1    0   
$EndComp
Text GLabel 1750 1500 1    50   Input ~ 0
5VCC
Wire Wire Line
	1650 1650 1750 1650
Wire Wire Line
	1750 1650 1750 1500
Wire Wire Line
	1800 2150 1650 2150
Text GLabel 2800 1350 1    50   Input ~ 0
COM
$Comp
L Device:LED L1
U 1 1 5B085863
P 900 1850
F 0 "L1" H 891 2066 50  0000 C CNN
F 1 "LED" H 891 1975 50  0000 C CNN
F 2 "LED_SMD:LED_1206_3216Metric_Pad1.22x1.80mm_HandSolder" H 900 1850 50  0001 C CNN
F 3 "~" H 900 1850 50  0001 C CNN
	1    900  1850
	1    0    0    -1  
$EndComp
Text GLabel 2400 1350 1    50   Input ~ 0
5VCC
$Comp
L Device:D D1
U 1 1 5B085870
P 1950 1650
F 0 "D1" V 1904 1729 50  0000 L CNN
F 1 "D" V 1995 1729 50  0000 L CNN
F 2 "Diode_SMD:D_1206_3216Metric_Pad1.22x1.80mm_HandSolder" H 1950 1650 50  0001 C CNN
F 3 "~" H 1950 1650 50  0001 C CNN
	1    1950 1650
	0    1    1    0   
$EndComp
Wire Wire Line
	1950 1800 1950 1950
Wire Wire Line
	1950 1950 2400 1950
Wire Wire Line
	1950 1350 2400 1350
Wire Wire Line
	1950 1350 1950 1500
$Comp
L Device:R R3
U 1 1 5B09AA50
P 4400 1650
F 0 "R3" V 4193 1650 50  0000 C CNN
F 1 "1k" V 4284 1650 50  0000 C CNN
F 2 "Resistor_SMD:R_1206_3216Metric_Pad1.39x1.80mm_HandSolder" V 4330 1650 50  0001 C CNN
F 3 "~" H 4400 1650 50  0001 C CNN
	1    4400 1650
	0    1    1    0   
$EndComp
Text GLabel 4250 1650 1    50   Input ~ 0
DIN_2
$Comp
L power:GND #PWR0103
U 1 1 5B09AA58
P 4250 1850
F 0 "#PWR0103" H 4250 1600 50  0001 C CNN
F 1 "GND" H 4255 1677 50  0000 C CNN
F 2 "" H 4250 1850 50  0001 C CNN
F 3 "" H 4250 1850 50  0001 C CNN
	1    4250 1850
	1    0    0    -1  
$EndComp
$Comp
L Device:R R4
U 1 1 5B09AA65
P 5450 2150
F 0 "R4" V 5243 2150 50  0000 C CNN
F 1 "1k" V 5334 2150 50  0000 C CNN
F 2 "Resistor_SMD:R_1206_3216Metric_Pad1.39x1.80mm_HandSolder" V 5380 2150 50  0001 C CNN
F 3 "~" H 5450 2150 50  0001 C CNN
	1    5450 2150
	0    1    1    0   
$EndComp
Text GLabel 5250 1500 1    50   Input ~ 0
5VCC
Wire Wire Line
	5150 1650 5250 1650
Wire Wire Line
	5250 1650 5250 1500
Wire Wire Line
	5300 2150 5150 2150
Wire Wire Line
	5150 2150 5150 1850
$Comp
L power:GND #PWR0104
U 1 1 5B09AA71
P 5900 2350
F 0 "#PWR0104" H 5900 2100 50  0001 C CNN
F 1 "GND" H 5905 2177 50  0000 C CNN
F 2 "" H 5900 2350 50  0001 C CNN
F 3 "" H 5900 2350 50  0001 C CNN
	1    5900 2350
	1    0    0    -1  
$EndComp
Text GLabel 6300 1350 1    50   Input ~ 0
COM
$Comp
L Device:LED L2
U 1 1 5B09AA7F
P 4400 1850
F 0 "L2" H 4391 2066 50  0000 C CNN
F 1 "LED" H 4391 1975 50  0000 C CNN
F 2 "LED_SMD:LED_1206_3216Metric_Pad1.22x1.80mm_HandSolder" H 4400 1850 50  0001 C CNN
F 3 "~" H 4400 1850 50  0001 C CNN
	1    4400 1850
	1    0    0    -1  
$EndComp
Text GLabel 5900 1350 1    50   Input ~ 0
5VCC
Text GLabel 6200 1950 3    50   Input ~ 0
NO_2
$Comp
L Device:D D2
U 1 1 5B09AA8C
P 5450 1650
F 0 "D2" V 5404 1729 50  0000 L CNN
F 1 "D" V 5495 1729 50  0000 L CNN
F 2 "Diode_SMD:D_1206_3216Metric_Pad1.22x1.80mm_HandSolder" H 5450 1650 50  0001 C CNN
F 3 "~" H 5450 1650 50  0001 C CNN
	1    5450 1650
	0    1    1    0   
$EndComp
Wire Wire Line
	5450 1800 5450 1950
Wire Wire Line
	5450 1350 5450 1500
$Comp
L Device:R R5
U 1 1 5B09AC64
P 7900 1650
F 0 "R5" V 7693 1650 50  0000 C CNN
F 1 "1k" V 7784 1650 50  0000 C CNN
F 2 "Resistor_SMD:R_1206_3216Metric_Pad1.39x1.80mm_HandSolder" V 7830 1650 50  0001 C CNN
F 3 "~" H 7900 1650 50  0001 C CNN
	1    7900 1650
	0    1    1    0   
$EndComp
Text GLabel 7750 1650 1    50   Input ~ 0
DIN_3
$Comp
L power:GND #PWR0105
U 1 1 5B09AC6C
P 7750 1850
F 0 "#PWR0105" H 7750 1600 50  0001 C CNN
F 1 "GND" H 7755 1677 50  0000 C CNN
F 2 "" H 7750 1850 50  0001 C CNN
F 3 "" H 7750 1850 50  0001 C CNN
	1    7750 1850
	1    0    0    -1  
$EndComp
$Comp
L Device:R R6
U 1 1 5B09AC79
P 8950 2150
F 0 "R6" V 8743 2150 50  0000 C CNN
F 1 "R" V 8834 2150 50  0000 C CNN
F 2 "Resistor_SMD:R_1206_3216Metric_Pad1.39x1.80mm_HandSolder" V 8880 2150 50  0001 C CNN
F 3 "~" H 8950 2150 50  0001 C CNN
	1    8950 2150
	0    1    1    0   
$EndComp
Text GLabel 8750 1500 1    50   Input ~ 0
5VCC
Wire Wire Line
	8650 1650 8750 1650
Wire Wire Line
	8750 1650 8750 1500
Wire Wire Line
	8800 2150 8650 2150
Wire Wire Line
	8650 2150 8650 1850
$Comp
L power:GND #PWR0106
U 1 1 5B09AC85
P 9400 2350
F 0 "#PWR0106" H 9400 2100 50  0001 C CNN
F 1 "GND" H 9405 2177 50  0000 C CNN
F 2 "" H 9400 2350 50  0001 C CNN
F 3 "" H 9400 2350 50  0001 C CNN
	1    9400 2350
	1    0    0    -1  
$EndComp
Text GLabel 9800 1350 1    50   Input ~ 0
COM
$Comp
L Device:LED L3
U 1 1 5B09AC93
P 7900 1850
F 0 "L3" H 7891 2066 50  0000 C CNN
F 1 "LED" H 7891 1975 50  0000 C CNN
F 2 "LED_SMD:LED_1206_3216Metric_Pad1.22x1.80mm_HandSolder" H 7900 1850 50  0001 C CNN
F 3 "~" H 7900 1850 50  0001 C CNN
	1    7900 1850
	1    0    0    -1  
$EndComp
Text GLabel 9400 1350 1    50   Input ~ 0
5VCC
Text GLabel 9700 1950 3    50   Input ~ 0
NO_3
$Comp
L Device:D D3
U 1 1 5B09ACA0
P 8950 1650
F 0 "D3" V 8904 1729 50  0000 L CNN
F 1 "D" V 8995 1729 50  0000 L CNN
F 2 "Diode_SMD:D_1206_3216Metric_Pad1.22x1.80mm_HandSolder" H 8950 1650 50  0001 C CNN
F 3 "~" H 8950 1650 50  0001 C CNN
	1    8950 1650
	0    1    1    0   
$EndComp
Wire Wire Line
	8950 1800 8950 1950
Wire Wire Line
	8950 1950 9400 1950
Wire Wire Line
	8950 1350 9400 1350
Wire Wire Line
	8950 1350 8950 1500
$Comp
L Device:R R7
U 1 1 5B09B3B9
P 900 3350
F 0 "R7" V 693 3350 50  0000 C CNN
F 1 "1k" V 784 3350 50  0000 C CNN
F 2 "Resistor_SMD:R_1206_3216Metric_Pad1.39x1.80mm_HandSolder" V 830 3350 50  0001 C CNN
F 3 "~" H 900 3350 50  0001 C CNN
	1    900  3350
	0    1    1    0   
$EndComp
Text GLabel 750  3350 1    50   Input ~ 0
DIN_4
$Comp
L power:GND #PWR0107
U 1 1 5B09B3C1
P 750 3550
F 0 "#PWR0107" H 750 3300 50  0001 C CNN
F 1 "GND" H 755 3377 50  0000 C CNN
F 2 "" H 750 3550 50  0001 C CNN
F 3 "" H 750 3550 50  0001 C CNN
	1    750  3550
	1    0    0    -1  
$EndComp
$Comp
L Device:R R8
U 1 1 5B09B3CE
P 1950 3850
F 0 "R8" V 1743 3850 50  0000 C CNN
F 1 "1k" V 1834 3850 50  0000 C CNN
F 2 "Resistor_SMD:R_1206_3216Metric_Pad1.39x1.80mm_HandSolder" V 1880 3850 50  0001 C CNN
F 3 "~" H 1950 3850 50  0001 C CNN
	1    1950 3850
	0    1    1    0   
$EndComp
Text GLabel 1750 3200 1    50   Input ~ 0
5VCC
Wire Wire Line
	1650 3350 1750 3350
Wire Wire Line
	1750 3350 1750 3200
Wire Wire Line
	1800 3850 1650 3850
Wire Wire Line
	1650 3850 1650 3550
$Comp
L power:GND #PWR0108
U 1 1 5B09B3DA
P 2400 4050
F 0 "#PWR0108" H 2400 3800 50  0001 C CNN
F 1 "GND" H 2405 3877 50  0000 C CNN
F 2 "" H 2400 4050 50  0001 C CNN
F 3 "" H 2400 4050 50  0001 C CNN
	1    2400 4050
	1    0    0    -1  
$EndComp
Text GLabel 2800 3050 1    50   Input ~ 0
COM
$Comp
L Device:LED L4
U 1 1 5B09B3E8
P 900 3550
F 0 "L4" H 891 3766 50  0000 C CNN
F 1 "LED" H 891 3675 50  0000 C CNN
F 2 "LED_SMD:LED_1206_3216Metric_Pad1.22x1.80mm_HandSolder" H 900 3550 50  0001 C CNN
F 3 "~" H 900 3550 50  0001 C CNN
	1    900  3550
	1    0    0    -1  
$EndComp
Text GLabel 2400 3050 1    50   Input ~ 0
5VCC
Text GLabel 2700 3650 3    50   Input ~ 0
NO_4
$Comp
L Device:D D4
U 1 1 5B09B3F5
P 1950 3350
F 0 "D4" V 1904 3429 50  0000 L CNN
F 1 "D" V 1995 3429 50  0000 L CNN
F 2 "Diode_SMD:D_1206_3216Metric_Pad1.22x1.80mm_HandSolder" H 1950 3350 50  0001 C CNN
F 3 "~" H 1950 3350 50  0001 C CNN
	1    1950 3350
	0    1    1    0   
$EndComp
Wire Wire Line
	1950 3500 1950 3650
Wire Wire Line
	1950 3650 2400 3650
Wire Wire Line
	1950 3050 2400 3050
Wire Wire Line
	1950 3050 1950 3200
$Comp
L Device:R R9
U 1 1 5B09BA26
P 4400 3350
F 0 "R9" V 4193 3350 50  0000 C CNN
F 1 "1k" V 4284 3350 50  0000 C CNN
F 2 "Resistor_SMD:R_1206_3216Metric_Pad1.39x1.80mm_HandSolder" V 4330 3350 50  0001 C CNN
F 3 "~" H 4400 3350 50  0001 C CNN
	1    4400 3350
	0    1    1    0   
$EndComp
Text GLabel 4250 3350 1    50   Input ~ 0
DIN_5
$Comp
L power:GND #PWR0109
U 1 1 5B09BA2E
P 4250 3550
F 0 "#PWR0109" H 4250 3300 50  0001 C CNN
F 1 "GND" H 4255 3377 50  0000 C CNN
F 2 "" H 4250 3550 50  0001 C CNN
F 3 "" H 4250 3550 50  0001 C CNN
	1    4250 3550
	1    0    0    -1  
$EndComp
$Comp
L Device:R R10
U 1 1 5B09BA3B
P 5450 3850
F 0 "R10" V 5243 3850 50  0000 C CNN
F 1 "1k" V 5334 3850 50  0000 C CNN
F 2 "Resistor_SMD:R_1206_3216Metric_Pad1.39x1.80mm_HandSolder" V 5380 3850 50  0001 C CNN
F 3 "~" H 5450 3850 50  0001 C CNN
	1    5450 3850
	0    1    1    0   
$EndComp
Text GLabel 5250 3200 1    50   Input ~ 0
5VCC
Wire Wire Line
	5150 3350 5250 3350
Wire Wire Line
	5250 3350 5250 3200
Wire Wire Line
	5300 3850 5150 3850
Wire Wire Line
	5150 3850 5150 3550
$Comp
L power:GND #PWR0110
U 1 1 5B09BA47
P 5900 4050
F 0 "#PWR0110" H 5900 3800 50  0001 C CNN
F 1 "GND" H 5905 3877 50  0000 C CNN
F 2 "" H 5900 4050 50  0001 C CNN
F 3 "" H 5900 4050 50  0001 C CNN
	1    5900 4050
	1    0    0    -1  
$EndComp
Text GLabel 6300 3050 1    50   Input ~ 0
COM
$Comp
L Device:LED L5
U 1 1 5B09BA55
P 4400 3550
F 0 "L5" H 4391 3766 50  0000 C CNN
F 1 "LED" H 4391 3675 50  0000 C CNN
F 2 "LED_SMD:LED_1206_3216Metric_Pad1.22x1.80mm_HandSolder" H 4400 3550 50  0001 C CNN
F 3 "~" H 4400 3550 50  0001 C CNN
	1    4400 3550
	1    0    0    -1  
$EndComp
Text GLabel 5900 3050 1    50   Input ~ 0
5VCC
Text GLabel 6200 3650 3    50   Input ~ 0
NO_5
$Comp
L Device:D D5
U 1 1 5B09BA62
P 5450 3350
F 0 "D5" V 5404 3429 50  0000 L CNN
F 1 "D" V 5495 3429 50  0000 L CNN
F 2 "Diode_SMD:D_1206_3216Metric_Pad1.22x1.80mm_HandSolder" H 5450 3350 50  0001 C CNN
F 3 "~" H 5450 3350 50  0001 C CNN
	1    5450 3350
	0    1    1    0   
$EndComp
Wire Wire Line
	5450 3500 5450 3650
Wire Wire Line
	5450 3650 5900 3650
Wire Wire Line
	5450 3050 5900 3050
Wire Wire Line
	5450 3050 5450 3200
$Comp
L Device:R R11
U 1 1 5B09C313
P 7900 3350
F 0 "R11" V 7693 3350 50  0000 C CNN
F 1 "1k" V 7784 3350 50  0000 C CNN
F 2 "Resistor_SMD:R_1206_3216Metric_Pad1.39x1.80mm_HandSolder" V 7830 3350 50  0001 C CNN
F 3 "~" H 7900 3350 50  0001 C CNN
	1    7900 3350
	0    1    1    0   
$EndComp
Text GLabel 7750 3350 1    50   Input ~ 0
DIN_6
$Comp
L power:GND #PWR0111
U 1 1 5B09C31B
P 7750 3550
F 0 "#PWR0111" H 7750 3300 50  0001 C CNN
F 1 "GND" H 7755 3377 50  0000 C CNN
F 2 "" H 7750 3550 50  0001 C CNN
F 3 "" H 7750 3550 50  0001 C CNN
	1    7750 3550
	1    0    0    -1  
$EndComp
$Comp
L Device:R R12
U 1 1 5B09C328
P 8950 3850
F 0 "R12" V 8743 3850 50  0000 C CNN
F 1 "1k" V 8834 3850 50  0000 C CNN
F 2 "Resistor_SMD:R_1206_3216Metric_Pad1.39x1.80mm_HandSolder" V 8880 3850 50  0001 C CNN
F 3 "~" H 8950 3850 50  0001 C CNN
	1    8950 3850
	0    1    1    0   
$EndComp
Text GLabel 8750 3200 1    50   Input ~ 0
5VCC
Wire Wire Line
	8650 3350 8750 3350
Wire Wire Line
	8750 3350 8750 3200
Wire Wire Line
	8800 3850 8650 3850
Wire Wire Line
	8650 3850 8650 3550
$Comp
L power:GND #PWR0112
U 1 1 5B09C334
P 9400 4050
F 0 "#PWR0112" H 9400 3800 50  0001 C CNN
F 1 "GND" H 9405 3877 50  0000 C CNN
F 2 "" H 9400 4050 50  0001 C CNN
F 3 "" H 9400 4050 50  0001 C CNN
	1    9400 4050
	1    0    0    -1  
$EndComp
Text GLabel 9800 3050 1    50   Input ~ 0
COM
$Comp
L Device:LED L6
U 1 1 5B09C342
P 7900 3550
F 0 "L6" H 7891 3766 50  0000 C CNN
F 1 "LED" H 7891 3675 50  0000 C CNN
F 2 "LED_SMD:LED_1206_3216Metric_Pad1.22x1.80mm_HandSolder" H 7900 3550 50  0001 C CNN
F 3 "~" H 7900 3550 50  0001 C CNN
	1    7900 3550
	1    0    0    -1  
$EndComp
Text GLabel 9400 3050 1    50   Input ~ 0
5VCC
Text GLabel 9700 3650 3    50   Input ~ 0
NO_6
$Comp
L Device:D D6
U 1 1 5B09C34F
P 8950 3350
F 0 "D6" V 8904 3429 50  0000 L CNN
F 1 "D" V 8995 3429 50  0000 L CNN
F 2 "Diode_SMD:D_1206_3216Metric_Pad1.22x1.80mm_HandSolder" H 8950 3350 50  0001 C CNN
F 3 "~" H 8950 3350 50  0001 C CNN
	1    8950 3350
	0    1    1    0   
$EndComp
Wire Wire Line
	8950 3500 8950 3650
Wire Wire Line
	8950 3650 9400 3650
Wire Wire Line
	8950 3050 9400 3050
Wire Wire Line
	8950 3050 8950 3200
$Comp
L Device:R R13
U 1 1 5B09CEF0
P 900 5050
F 0 "R13" V 693 5050 50  0000 C CNN
F 1 "1k" V 784 5050 50  0000 C CNN
F 2 "Resistor_SMD:R_1206_3216Metric_Pad1.39x1.80mm_HandSolder" V 830 5050 50  0001 C CNN
F 3 "~" H 900 5050 50  0001 C CNN
	1    900  5050
	0    1    1    0   
$EndComp
$Comp
L power:GND #PWR0113
U 1 1 5B09CEF8
P 750 5250
F 0 "#PWR0113" H 750 5000 50  0001 C CNN
F 1 "GND" H 755 5077 50  0000 C CNN
F 2 "" H 750 5250 50  0001 C CNN
F 3 "" H 750 5250 50  0001 C CNN
	1    750  5250
	1    0    0    -1  
$EndComp
$Comp
L Device:R R14
U 1 1 5B09CF05
P 1950 5550
F 0 "R14" V 1743 5550 50  0000 C CNN
F 1 "1k" V 1834 5550 50  0000 C CNN
F 2 "Resistor_SMD:R_1206_3216Metric_Pad1.39x1.80mm_HandSolder" V 1880 5550 50  0001 C CNN
F 3 "~" H 1950 5550 50  0001 C CNN
	1    1950 5550
	0    1    1    0   
$EndComp
Text GLabel 1750 4900 1    50   Input ~ 0
5VCC
Wire Wire Line
	1650 5050 1750 5050
Wire Wire Line
	1750 5050 1750 4900
Wire Wire Line
	1800 5550 1650 5550
Wire Wire Line
	1650 5550 1650 5250
$Comp
L power:GND #PWR0114
U 1 1 5B09CF11
P 2400 5750
F 0 "#PWR0114" H 2400 5500 50  0001 C CNN
F 1 "GND" H 2405 5577 50  0000 C CNN
F 2 "" H 2400 5750 50  0001 C CNN
F 3 "" H 2400 5750 50  0001 C CNN
	1    2400 5750
	1    0    0    -1  
$EndComp
Text GLabel 2800 4750 1    50   Input ~ 0
COM
$Comp
L Device:LED L7
U 1 1 5B09CF1F
P 900 5250
F 0 "L7" H 891 5466 50  0000 C CNN
F 1 "LED" H 891 5375 50  0000 C CNN
F 2 "LED_SMD:LED_1206_3216Metric_Pad1.22x1.80mm_HandSolder" H 900 5250 50  0001 C CNN
F 3 "~" H 900 5250 50  0001 C CNN
	1    900  5250
	1    0    0    -1  
$EndComp
Text GLabel 2400 4750 1    50   Input ~ 0
5VCC
Text GLabel 2700 5350 3    50   Input ~ 0
NO_7
$Comp
L Device:D D7
U 1 1 5B09CF2C
P 1950 5050
F 0 "D7" V 1904 5129 50  0000 L CNN
F 1 "D" V 1995 5129 50  0000 L CNN
F 2 "Diode_SMD:D_1206_3216Metric_Pad1.22x1.80mm_HandSolder" H 1950 5050 50  0001 C CNN
F 3 "~" H 1950 5050 50  0001 C CNN
	1    1950 5050
	0    1    1    0   
$EndComp
Wire Wire Line
	1950 5200 1950 5350
Wire Wire Line
	1950 5350 2400 5350
Wire Wire Line
	1950 4750 2400 4750
Wire Wire Line
	1950 4750 1950 4900
$Comp
L Device:R R15
U 1 1 5B09E014
P 4400 5050
F 0 "R15" V 4193 5050 50  0000 C CNN
F 1 "1k" V 4284 5050 50  0000 C CNN
F 2 "Resistor_SMD:R_1206_3216Metric_Pad1.39x1.80mm_HandSolder" V 4330 5050 50  0001 C CNN
F 3 "~" H 4400 5050 50  0001 C CNN
	1    4400 5050
	0    1    1    0   
$EndComp
Text GLabel 4250 5050 1    50   Input ~ 0
DIN_8
$Comp
L power:GND #PWR0115
U 1 1 5B09E01C
P 4250 5250
F 0 "#PWR0115" H 4250 5000 50  0001 C CNN
F 1 "GND" H 4255 5077 50  0000 C CNN
F 2 "" H 4250 5250 50  0001 C CNN
F 3 "" H 4250 5250 50  0001 C CNN
	1    4250 5250
	1    0    0    -1  
$EndComp
$Comp
L Device:R R16
U 1 1 5B09E029
P 5450 5550
F 0 "R16" V 5243 5550 50  0000 C CNN
F 1 "1k" V 5334 5550 50  0000 C CNN
F 2 "Resistor_SMD:R_1206_3216Metric_Pad1.39x1.80mm_HandSolder" V 5380 5550 50  0001 C CNN
F 3 "~" H 5450 5550 50  0001 C CNN
	1    5450 5550
	0    1    1    0   
$EndComp
Text GLabel 5250 4900 1    50   Input ~ 0
5VCC
Wire Wire Line
	5150 5050 5250 5050
Wire Wire Line
	5250 5050 5250 4900
Wire Wire Line
	5300 5550 5150 5550
Wire Wire Line
	5150 5550 5150 5250
$Comp
L power:GND #PWR0116
U 1 1 5B09E035
P 5900 5750
F 0 "#PWR0116" H 5900 5500 50  0001 C CNN
F 1 "GND" H 5905 5577 50  0000 C CNN
F 2 "" H 5900 5750 50  0001 C CNN
F 3 "" H 5900 5750 50  0001 C CNN
	1    5900 5750
	1    0    0    -1  
$EndComp
Text GLabel 6300 4750 1    50   Input ~ 0
COM
$Comp
L Device:LED L8
U 1 1 5B09E043
P 4400 5250
F 0 "L8" H 4391 5466 50  0000 C CNN
F 1 "LED" H 4391 5375 50  0000 C CNN
F 2 "LED_SMD:LED_1206_3216Metric_Pad1.22x1.80mm_HandSolder" H 4400 5250 50  0001 C CNN
F 3 "~" H 4400 5250 50  0001 C CNN
	1    4400 5250
	1    0    0    -1  
$EndComp
Text GLabel 5900 4750 1    50   Input ~ 0
5VCC
Text GLabel 6200 5350 3    50   Input ~ 0
NO_8
$Comp
L Device:D D8
U 1 1 5B09E050
P 5450 5050
F 0 "D8" V 5404 5129 50  0000 L CNN
F 1 "D" V 5495 5129 50  0000 L CNN
F 2 "Diode_SMD:D_1206_3216Metric_Pad1.22x1.80mm_HandSolder" H 5450 5050 50  0001 C CNN
F 3 "~" H 5450 5050 50  0001 C CNN
	1    5450 5050
	0    1    1    0   
$EndComp
Wire Wire Line
	5450 5200 5450 5350
Wire Wire Line
	5450 5350 5900 5350
Wire Wire Line
	5450 4750 5900 4750
Wire Wire Line
	5450 4750 5450 4900
$Comp
L Device:R R17
U 1 1 5B09F607
P 7900 5050
F 0 "R17" V 7693 5050 50  0000 C CNN
F 1 "1k" V 7784 5050 50  0000 C CNN
F 2 "Resistor_SMD:R_1206_3216Metric_Pad1.39x1.80mm_HandSolder" V 7830 5050 50  0001 C CNN
F 3 "~" H 7900 5050 50  0001 C CNN
	1    7900 5050
	0    1    1    0   
$EndComp
$Comp
L power:GND #PWR0117
U 1 1 5B09F60F
P 7750 5250
F 0 "#PWR0117" H 7750 5000 50  0001 C CNN
F 1 "GND" H 7755 5077 50  0000 C CNN
F 2 "" H 7750 5250 50  0001 C CNN
F 3 "" H 7750 5250 50  0001 C CNN
	1    7750 5250
	1    0    0    -1  
$EndComp
$Comp
L Device:R R18
U 1 1 5B09F61C
P 8950 5550
F 0 "R18" V 8743 5550 50  0000 C CNN
F 1 "R" V 8834 5550 50  0000 C CNN
F 2 "Resistor_SMD:R_1206_3216Metric_Pad1.39x1.80mm_HandSolder" V 8880 5550 50  0001 C CNN
F 3 "~" H 8950 5550 50  0001 C CNN
	1    8950 5550
	0    1    1    0   
$EndComp
Text GLabel 8750 4900 1    50   Input ~ 0
5VCC
Wire Wire Line
	8650 5050 8750 5050
Wire Wire Line
	8750 5050 8750 4900
Wire Wire Line
	8800 5550 8650 5550
Wire Wire Line
	8650 5550 8650 5250
$Comp
L power:GND #PWR0118
U 1 1 5B09F628
P 9400 5750
F 0 "#PWR0118" H 9400 5500 50  0001 C CNN
F 1 "GND" H 9405 5577 50  0000 C CNN
F 2 "" H 9400 5750 50  0001 C CNN
F 3 "" H 9400 5750 50  0001 C CNN
	1    9400 5750
	1    0    0    -1  
$EndComp
Text GLabel 9800 4750 1    50   Input ~ 0
COM
$Comp
L Device:LED L9
U 1 1 5B09F636
P 7900 5250
F 0 "L9" H 7891 5466 50  0000 C CNN
F 1 "LED" H 7891 5375 50  0000 C CNN
F 2 "LED_SMD:LED_1206_3216Metric_Pad1.22x1.80mm_HandSolder" H 7900 5250 50  0001 C CNN
F 3 "~" H 7900 5250 50  0001 C CNN
	1    7900 5250
	1    0    0    -1  
$EndComp
Text GLabel 9400 4750 1    50   Input ~ 0
5VCC
Text GLabel 9700 5350 3    50   Input ~ 0
NO_9
$Comp
L Device:D D9
U 1 1 5B09F643
P 8950 5050
F 0 "D9" V 8904 5129 50  0000 L CNN
F 1 "D" V 8995 5129 50  0000 L CNN
F 2 "Diode_SMD:D_1206_3216Metric_Pad1.22x1.80mm_HandSolder" H 8950 5050 50  0001 C CNN
F 3 "~" H 8950 5050 50  0001 C CNN
	1    8950 5050
	0    1    1    0   
$EndComp
Wire Wire Line
	8950 5200 8950 5350
Wire Wire Line
	8950 5350 9400 5350
Wire Wire Line
	8950 4750 9400 4750
Wire Wire Line
	8950 4750 8950 4900
$Comp
L Device:R R19
U 1 1 5B0A3694
P 900 6750
F 0 "R19" V 693 6750 50  0000 C CNN
F 1 "1k" V 784 6750 50  0000 C CNN
F 2 "Resistor_SMD:R_1206_3216Metric_Pad1.39x1.80mm_HandSolder" V 830 6750 50  0001 C CNN
F 3 "~" H 900 6750 50  0001 C CNN
	1    900  6750
	0    1    1    0   
$EndComp
Text GLabel 750  6750 1    50   Input ~ 0
DIN_10
$Comp
L power:GND #PWR0119
U 1 1 5B0A369C
P 750 6950
F 0 "#PWR0119" H 750 6700 50  0001 C CNN
F 1 "GND" H 755 6777 50  0000 C CNN
F 2 "" H 750 6950 50  0001 C CNN
F 3 "" H 750 6950 50  0001 C CNN
	1    750  6950
	1    0    0    -1  
$EndComp
$Comp
L Device:R R20
U 1 1 5B0A36A9
P 1950 7250
F 0 "R20" V 1743 7250 50  0000 C CNN
F 1 "1k" V 1834 7250 50  0000 C CNN
F 2 "Resistor_SMD:R_1206_3216Metric_Pad1.39x1.80mm_HandSolder" V 1880 7250 50  0001 C CNN
F 3 "~" H 1950 7250 50  0001 C CNN
	1    1950 7250
	0    1    1    0   
$EndComp
Text GLabel 1750 6600 1    50   Input ~ 0
5VCC
Wire Wire Line
	1650 6750 1750 6750
Wire Wire Line
	1750 6750 1750 6600
Wire Wire Line
	1800 7250 1650 7250
Wire Wire Line
	1650 7250 1650 6950
$Comp
L power:GND #PWR0120
U 1 1 5B0A36B5
P 2400 7450
F 0 "#PWR0120" H 2400 7200 50  0001 C CNN
F 1 "GND" H 2405 7277 50  0000 C CNN
F 2 "" H 2400 7450 50  0001 C CNN
F 3 "" H 2400 7450 50  0001 C CNN
	1    2400 7450
	1    0    0    -1  
$EndComp
Text GLabel 2800 6450 1    50   Input ~ 0
COM
$Comp
L Device:LED L10
U 1 1 5B0A36C3
P 900 6950
F 0 "L10" H 891 7166 50  0000 C CNN
F 1 "LED" H 891 7075 50  0000 C CNN
F 2 "LED_SMD:LED_1206_3216Metric_Pad1.22x1.80mm_HandSolder" H 900 6950 50  0001 C CNN
F 3 "~" H 900 6950 50  0001 C CNN
	1    900  6950
	1    0    0    -1  
$EndComp
Text GLabel 2400 6450 1    50   Input ~ 0
5VCC
Text GLabel 2700 7050 3    50   Input ~ 0
NO_10
$Comp
L Device:D D10
U 1 1 5B0A36D0
P 1950 6750
F 0 "D10" V 1904 6829 50  0000 L CNN
F 1 "D" V 1995 6829 50  0000 L CNN
F 2 "Diode_SMD:D_1206_3216Metric_Pad1.22x1.80mm_HandSolder" H 1950 6750 50  0001 C CNN
F 3 "~" H 1950 6750 50  0001 C CNN
	1    1950 6750
	0    1    1    0   
$EndComp
Wire Wire Line
	1950 6900 1950 7050
Wire Wire Line
	1950 7050 2400 7050
Wire Wire Line
	1950 6450 2400 6450
Wire Wire Line
	1950 6450 1950 6600
Text GLabel 6100 6750 0    50   Output ~ 0
DIN_3
Text GLabel 6600 6750 2    50   Output ~ 0
DIN_4
Text GLabel 6100 6850 0    50   Output ~ 0
DIN_5
Text GLabel 6600 6850 2    50   Output ~ 0
DIN_6
Text GLabel 6600 6950 2    50   Output ~ 0
DIN_8
Text GLabel 6100 7050 0    50   Output ~ 0
DIN_9
Text GLabel 6600 7050 2    50   Output ~ 0
DIN_10
Text GLabel 6100 6650 0    50   Output ~ 0
DIN_1
Text GLabel 6600 6650 2    50   Output ~ 0
DIN_2
Text GLabel 6100 6950 0    50   Output ~ 0
DIN_7
$Comp
L Transistor_BJT:BC817 Q3
U 1 1 5B0C5ACA
P 9300 2150
F 0 "Q3" H 9491 2196 50  0000 L CNN
F 1 "BC817" H 9491 2105 50  0000 L CNN
F 2 "Package_TO_SOT_SMD:SOT-23" H 9500 2075 50  0001 L CIN
F 3 "http://www.fairchildsemi.com/ds/BC/BC817.pdf" H 9300 2150 50  0001 L CNN
	1    9300 2150
	1    0    0    -1  
$EndComp
$Comp
L Transistor_BJT:BC817 Q2
U 1 1 5B0C6B7C
P 5800 2150
F 0 "Q2" H 5991 2196 50  0000 L CNN
F 1 "BC817" H 5991 2105 50  0000 L CNN
F 2 "Package_TO_SOT_SMD:SOT-23" H 6000 2075 50  0001 L CIN
F 3 "http://www.fairchildsemi.com/ds/BC/BC817.pdf" H 5800 2150 50  0001 L CNN
	1    5800 2150
	1    0    0    -1  
$EndComp
$Comp
L Transistor_BJT:BC817 Q4
U 1 1 5B0C7C29
P 2300 3850
F 0 "Q4" H 2491 3896 50  0000 L CNN
F 1 "BC817" H 2491 3805 50  0000 L CNN
F 2 "Package_TO_SOT_SMD:SOT-23" H 2500 3775 50  0001 L CIN
F 3 "http://www.fairchildsemi.com/ds/BC/BC817.pdf" H 2300 3850 50  0001 L CNN
	1    2300 3850
	1    0    0    -1  
$EndComp
$Comp
L Transistor_BJT:BC817 Q5
U 1 1 5B0C7CFD
P 5800 3850
F 0 "Q5" H 5991 3896 50  0000 L CNN
F 1 "BC817" H 5991 3805 50  0000 L CNN
F 2 "Package_TO_SOT_SMD:SOT-23" H 6000 3775 50  0001 L CIN
F 3 "http://www.fairchildsemi.com/ds/BC/BC817.pdf" H 5800 3850 50  0001 L CNN
	1    5800 3850
	1    0    0    -1  
$EndComp
$Comp
L Transistor_BJT:BC817 Q6
U 1 1 5B0C7DE1
P 9300 3850
F 0 "Q6" H 9491 3896 50  0000 L CNN
F 1 "BC817" H 9491 3805 50  0000 L CNN
F 2 "Package_TO_SOT_SMD:SOT-23" H 9500 3775 50  0001 L CIN
F 3 "http://www.fairchildsemi.com/ds/BC/BC817.pdf" H 9300 3850 50  0001 L CNN
	1    9300 3850
	1    0    0    -1  
$EndComp
$Comp
L Transistor_BJT:BC817 Q7
U 1 1 5B0C805F
P 2300 5550
F 0 "Q7" H 2491 5596 50  0000 L CNN
F 1 "BC817" H 2491 5505 50  0000 L CNN
F 2 "Package_TO_SOT_SMD:SOT-23" H 2500 5475 50  0001 L CIN
F 3 "http://www.fairchildsemi.com/ds/BC/BC817.pdf" H 2300 5550 50  0001 L CNN
	1    2300 5550
	1    0    0    -1  
$EndComp
$Comp
L Transistor_BJT:BC817 Q8
U 1 1 5B0C815B
P 5800 5550
F 0 "Q8" H 5991 5596 50  0000 L CNN
F 1 "BC817" H 5991 5505 50  0000 L CNN
F 2 "Package_TO_SOT_SMD:SOT-23" H 6000 5475 50  0001 L CIN
F 3 "http://www.fairchildsemi.com/ds/BC/BC817.pdf" H 5800 5550 50  0001 L CNN
	1    5800 5550
	1    0    0    -1  
$EndComp
$Comp
L Transistor_BJT:BC817 Q9
U 1 1 5B0C8237
P 9300 5550
F 0 "Q9" H 9491 5596 50  0000 L CNN
F 1 "BC817" H 9491 5505 50  0000 L CNN
F 2 "Package_TO_SOT_SMD:SOT-23" H 9500 5475 50  0001 L CIN
F 3 "http://www.fairchildsemi.com/ds/BC/BC817.pdf" H 9300 5550 50  0001 L CNN
	1    9300 5550
	1    0    0    -1  
$EndComp
$Comp
L Transistor_BJT:BC817 Q10
U 1 1 5B0C8874
P 2300 7250
F 0 "Q10" H 2491 7296 50  0000 L CNN
F 1 "BC817" H 2491 7205 50  0000 L CNN
F 2 "Package_TO_SOT_SMD:SOT-23" H 2500 7175 50  0001 L CIN
F 3 "http://www.fairchildsemi.com/ds/BC/BC817.pdf" H 2300 7250 50  0001 L CNN
	1    2300 7250
	1    0    0    -1  
$EndComp
Wire Wire Line
	1650 1850 1650 2150
Text GLabel 6100 6550 0    50   Output ~ 0
GND
Text GLabel 6600 6550 2    50   Output ~ 0
5VCC
Text GLabel 750  5050 1    50   Input ~ 0
DIN_7
Text GLabel 7750 5050 1    50   Input ~ 0
DIN_9
$Comp
L Isolator:TLP185 U1
U 1 1 5B101859
P 1350 1750
F 0 "U1" H 1350 2075 50  0000 C CNN
F 1 "TLP185" H 1350 1984 50  0000 C CNN
F 2 "Package_SO:MFSOP6-4_4.4x3.6mm_P1.27mm" H 1350 1450 50  0001 C CIN
F 3 "https://toshiba.semicon-storage.com/info/docget.jsp?did=11791&prodName=TLP185" H 1350 1750 50  0001 L CNN
	1    1350 1750
	1    0    0    -1  
$EndComp
$Comp
L Isolator:TLP185 U2
U 1 1 5B1080BF
P 4850 1750
F 0 "U2" H 4850 2075 50  0000 C CNN
F 1 "TLP185" H 4850 1984 50  0000 C CNN
F 2 "Package_SO:MFSOP6-4_4.4x3.6mm_P1.27mm" H 4850 1450 50  0001 C CIN
F 3 "https://toshiba.semicon-storage.com/info/docget.jsp?did=11791&prodName=TLP185" H 4850 1750 50  0001 L CNN
	1    4850 1750
	1    0    0    -1  
$EndComp
$Comp
L Isolator:TLP185 U3
U 1 1 5B1090A6
P 8350 1750
F 0 "U3" H 8350 2075 50  0000 C CNN
F 1 "TLP185" H 8350 1984 50  0000 C CNN
F 2 "Package_SO:MFSOP6-4_4.4x3.6mm_P1.27mm" H 8350 1450 50  0001 C CIN
F 3 "https://toshiba.semicon-storage.com/info/docget.jsp?did=11791&prodName=TLP185" H 8350 1750 50  0001 L CNN
	1    8350 1750
	1    0    0    -1  
$EndComp
$Comp
L Isolator:TLP185 U4
U 1 1 5B10A2B6
P 1350 3450
F 0 "U4" H 1350 3775 50  0000 C CNN
F 1 "TLP185" H 1350 3684 50  0000 C CNN
F 2 "Package_SO:MFSOP6-4_4.4x3.6mm_P1.27mm" H 1350 3150 50  0001 C CIN
F 3 "https://toshiba.semicon-storage.com/info/docget.jsp?did=11791&prodName=TLP185" H 1350 3450 50  0001 L CNN
	1    1350 3450
	1    0    0    -1  
$EndComp
$Comp
L Isolator:TLP185 U5
U 1 1 5B10A50A
P 4850 3450
F 0 "U5" H 4850 3775 50  0000 C CNN
F 1 "TLP185" H 4850 3684 50  0000 C CNN
F 2 "Package_SO:MFSOP6-4_4.4x3.6mm_P1.27mm" H 4850 3150 50  0001 C CIN
F 3 "https://toshiba.semicon-storage.com/info/docget.jsp?did=11791&prodName=TLP185" H 4850 3450 50  0001 L CNN
	1    4850 3450
	1    0    0    -1  
$EndComp
$Comp
L Isolator:TLP185 U6
U 1 1 5B10B482
P 8350 3450
F 0 "U6" H 8350 3775 50  0000 C CNN
F 1 "TLP185" H 8350 3684 50  0000 C CNN
F 2 "Package_SO:MFSOP6-4_4.4x3.6mm_P1.27mm" H 8350 3150 50  0001 C CIN
F 3 "https://toshiba.semicon-storage.com/info/docget.jsp?did=11791&prodName=TLP185" H 8350 3450 50  0001 L CNN
	1    8350 3450
	1    0    0    -1  
$EndComp
$Comp
L Isolator:TLP185 U7
U 1 1 5B10CD19
P 1350 5150
F 0 "U7" H 1350 5475 50  0000 C CNN
F 1 "TLP185" H 1350 5384 50  0000 C CNN
F 2 "Package_SO:MFSOP6-4_4.4x3.6mm_P1.27mm" H 1350 4850 50  0001 C CIN
F 3 "https://toshiba.semicon-storage.com/info/docget.jsp?did=11791&prodName=TLP185" H 1350 5150 50  0001 L CNN
	1    1350 5150
	1    0    0    -1  
$EndComp
$Comp
L Isolator:TLP185 U8
U 1 1 5B10D052
P 4850 5150
F 0 "U8" H 4850 5475 50  0000 C CNN
F 1 "TLP185" H 4850 5384 50  0000 C CNN
F 2 "Package_SO:MFSOP6-4_4.4x3.6mm_P1.27mm" H 4850 4850 50  0001 C CIN
F 3 "https://toshiba.semicon-storage.com/info/docget.jsp?did=11791&prodName=TLP185" H 4850 5150 50  0001 L CNN
	1    4850 5150
	1    0    0    -1  
$EndComp
$Comp
L Isolator:TLP185 U9
U 1 1 5B10E045
P 8350 5150
F 0 "U9" H 8350 5475 50  0000 C CNN
F 1 "TLP185" H 8350 5384 50  0000 C CNN
F 2 "Package_SO:MFSOP6-4_4.4x3.6mm_P1.27mm" H 8350 4850 50  0001 C CIN
F 3 "https://toshiba.semicon-storage.com/info/docget.jsp?did=11791&prodName=TLP185" H 8350 5150 50  0001 L CNN
	1    8350 5150
	1    0    0    -1  
$EndComp
$Comp
L Isolator:TLP185 U10
U 1 1 5B10F206
P 1350 6850
F 0 "U10" H 1350 7175 50  0000 C CNN
F 1 "TLP185" H 1350 7084 50  0000 C CNN
F 2 "Package_SO:MFSOP6-4_4.4x3.6mm_P1.27mm" H 1350 6550 50  0001 C CIN
F 3 "https://toshiba.semicon-storage.com/info/docget.jsp?did=11791&prodName=TLP185" H 1350 6850 50  0001 L CNN
	1    1350 6850
	1    0    0    -1  
$EndComp
$Comp
L Connector:Screw_Terminal_01x12 J11
U 1 1 5B2A9CE4
P 5050 7050
F 0 "J11" H 5130 7042 50  0000 L CNN
F 1 "Screw_Terminal_01x12" H 5130 6951 50  0000 L CNN
F 2 "TerminalBlock_Phoenix:TerminalBlock_Phoenix_MKDS-1,5-12-5.08_1x12_P5.08mm_Horizontal" H 5050 7050 50  0001 C CNN
F 3 "~" H 5050 7050 50  0001 C CNN
	1    5050 7050
	1    0    0    -1  
$EndComp
Text GLabel 4850 7550 0    50   Input ~ 0
COM
Text GLabel 4850 7450 0    50   Input ~ 0
NO_10
Text GLabel 4850 7250 0    50   Input ~ 0
NO_8
Text GLabel 4850 7350 0    50   Input ~ 0
NO_9
Text GLabel 4850 7150 0    50   Input ~ 0
NO_7
Text GLabel 4850 6550 0    50   Input ~ 0
NO_1
Text GLabel 4850 6650 0    50   Input ~ 0
NO_2
Text GLabel 4850 6750 0    50   Input ~ 0
NO_3
Text GLabel 4850 6850 0    50   Input ~ 0
NO_4
Text GLabel 4850 6950 0    50   Input ~ 0
NO_5
Text GLabel 4850 7050 0    50   Input ~ 0
NO_6
Text GLabel 4850 7650 0    50   Input ~ 0
COM
$Comp
L Relay:SANYOU_SRD_Form_C K1
U 1 1 5B2AEECD
P 2600 1650
F 0 "K1" H 2170 1604 50  0000 R CNN
F 1 "SANYOU_SRD_Form_C" H 2170 1695 50  0000 R CNN
F 2 "Relay_THT:Relay_SPDT_SANYOU_SRD_Series_Form_C" H 3050 1600 50  0001 L CNN
F 3 "http://www.sanyourelay.ca/public/products/pdf/SRD.pdf" H 2600 1650 50  0001 C CNN
	1    2600 1650
	1    0    0    1   
$EndComp
$Comp
L Relay:SANYOU_SRD_Form_C K2
U 1 1 5B2AF3A3
P 6100 1650
F 0 "K2" H 5670 1604 50  0000 R CNN
F 1 "SANYOU_SRD_Form_C" H 5670 1695 50  0000 R CNN
F 2 "Relay_THT:Relay_SPDT_SANYOU_SRD_Series_Form_C" H 6550 1600 50  0001 L CNN
F 3 "http://www.sanyourelay.ca/public/products/pdf/SRD.pdf" H 6100 1650 50  0001 C CNN
	1    6100 1650
	1    0    0    1   
$EndComp
$Comp
L Relay:SANYOU_SRD_Form_C K3
U 1 1 5B2AF6DF
P 9600 1650
F 0 "K3" H 9170 1604 50  0000 R CNN
F 1 "SANYOU_SRD_Form_C" H 9170 1695 50  0000 R CNN
F 2 "Relay_THT:Relay_SPDT_SANYOU_SRD_Series_Form_C" H 10050 1600 50  0001 L CNN
F 3 "http://www.sanyourelay.ca/public/products/pdf/SRD.pdf" H 9600 1650 50  0001 C CNN
	1    9600 1650
	1    0    0    1   
$EndComp
Connection ~ 9400 1950
$Comp
L Relay:SANYOU_SRD_Form_C K4
U 1 1 5B2AF7BB
P 2600 3350
F 0 "K4" H 3030 3396 50  0000 L CNN
F 1 "SANYOU_SRD_Form_C" H 3030 3305 50  0000 L CNN
F 2 "Relay_THT:Relay_SPDT_SANYOU_SRD_Series_Form_C" H 3050 3300 50  0001 L CNN
F 3 "http://www.sanyourelay.ca/public/products/pdf/SRD.pdf" H 2600 3350 50  0001 C CNN
	1    2600 3350
	1    0    0    1   
$EndComp
Connection ~ 2400 3650
$Comp
L Relay:SANYOU_SRD_Form_C K5
U 1 1 5B2AF883
P 6100 3350
F 0 "K5" H 5670 3304 50  0000 R CNN
F 1 "SANYOU_SRD_Form_C" H 5670 3395 50  0000 R CNN
F 2 "Relay_THT:Relay_SPDT_SANYOU_SRD_Series_Form_C" H 6550 3300 50  0001 L CNN
F 3 "http://www.sanyourelay.ca/public/products/pdf/SRD.pdf" H 6100 3350 50  0001 C CNN
	1    6100 3350
	1    0    0    1   
$EndComp
Connection ~ 5900 3650
$Comp
L Relay:SANYOU_SRD_Form_C K6
U 1 1 5B2AF955
P 9600 3350
F 0 "K6" H 9170 3304 50  0000 R CNN
F 1 "SANYOU_SRD_Form_C" H 9170 3395 50  0000 R CNN
F 2 "Relay_THT:Relay_SPDT_SANYOU_SRD_Series_Form_C" H 10050 3300 50  0001 L CNN
F 3 "http://www.sanyourelay.ca/public/products/pdf/SRD.pdf" H 9600 3350 50  0001 C CNN
	1    9600 3350
	1    0    0    1   
$EndComp
Connection ~ 9400 3650
$Comp
L Relay:SANYOU_SRD_Form_C K9
U 1 1 5B2AFA41
P 9600 5050
F 0 "K9" H 9170 5004 50  0000 R CNN
F 1 "SANYOU_SRD_Form_C" H 9170 5095 50  0000 R CNN
F 2 "Relay_THT:Relay_SPDT_SANYOU_SRD_Series_Form_C" H 10050 5000 50  0001 L CNN
F 3 "http://www.sanyourelay.ca/public/products/pdf/SRD.pdf" H 9600 5050 50  0001 C CNN
	1    9600 5050
	1    0    0    1   
$EndComp
Connection ~ 9400 5350
$Comp
L Relay:SANYOU_SRD_Form_C K8
U 1 1 5B2AFB2B
P 6100 5050
F 0 "K8" H 5670 5004 50  0000 R CNN
F 1 "SANYOU_SRD_Form_C" H 5670 5095 50  0000 R CNN
F 2 "Relay_THT:Relay_SPDT_SANYOU_SRD_Series_Form_C" H 6550 5000 50  0001 L CNN
F 3 "http://www.sanyourelay.ca/public/products/pdf/SRD.pdf" H 6100 5050 50  0001 C CNN
	1    6100 5050
	1    0    0    1   
$EndComp
$Comp
L Relay:SANYOU_SRD_Form_C K7
U 1 1 5B2AFBF9
P 2600 5050
F 0 "K7" H 2170 5004 50  0000 R CNN
F 1 "SANYOU_SRD_Form_C" H 2170 5095 50  0000 R CNN
F 2 "Relay_THT:Relay_SPDT_SANYOU_SRD_Series_Form_C" H 3050 5000 50  0001 L CNN
F 3 "http://www.sanyourelay.ca/public/products/pdf/SRD.pdf" H 2600 5050 50  0001 C CNN
	1    2600 5050
	1    0    0    1   
$EndComp
Connection ~ 2400 5350
$Comp
L Relay:SANYOU_SRD_Form_C K10
U 1 1 5B2AFCC9
P 2600 6750
F 0 "K10" H 2170 6704 50  0000 R CNN
F 1 "SANYOU_SRD_Form_C" H 2170 6795 50  0000 R CNN
F 2 "Relay_THT:Relay_SPDT_SANYOU_SRD_Series_Form_C" H 3050 6700 50  0001 L CNN
F 3 "http://www.sanyourelay.ca/public/products/pdf/SRD.pdf" H 2600 6750 50  0001 C CNN
	1    2600 6750
	1    0    0    1   
$EndComp
Connection ~ 2400 7050
Connection ~ 5900 5350
Wire Wire Line
	5450 1350 5900 1350
Connection ~ 5900 1950
Wire Wire Line
	5450 1950 5900 1950
$Comp
L power:GND #PWR0102
U 1 1 5B2C256A
P 2400 2350
F 0 "#PWR0102" H 2400 2100 50  0001 C CNN
F 1 "GND" H 2405 2177 50  0000 C CNN
F 2 "" H 2400 2350 50  0001 C CNN
F 3 "" H 2400 2350 50  0001 C CNN
	1    2400 2350
	1    0    0    -1  
$EndComp
$Comp
L Transistor_BJT:BC817 Q1
U 1 1 5B2BDEE2
P 2300 2150
F 0 "Q1" H 2491 2196 50  0000 L CNN
F 1 "BC817" H 2491 2105 50  0000 L CNN
F 2 "Package_TO_SOT_SMD:SOT-23" H 2500 2075 50  0001 L CIN
F 3 "http://www.fairchildsemi.com/ds/BC/BC817.pdf" H 2300 2150 50  0001 L CNN
	1    2300 2150
	1    0    0    -1  
$EndComp
Connection ~ 2400 1950
Text GLabel 2700 1950 3    50   Input ~ 0
NO_1
$Comp
L Connector_Generic:Conn_02x07_Odd_Even J1
U 1 1 5B2CDCFD
P 6300 6750
F 0 "J1" H 6350 7267 50  0000 C CNN
F 1 "Conn_02x07_Odd_Even" H 6350 7176 50  0000 C CNN
F 2 "Connector_IDC:IDC-Header_2x07_P2.54mm_Vertical" H 6300 6750 50  0001 C CNN
F 3 "~" H 6300 6750 50  0001 C CNN
	1    6300 6750
	1    0    0    -1  
$EndComp
Text GLabel 6100 6450 0    50   Output ~ 0
GND
Text GLabel 6600 6450 2    50   Output ~ 0
5VCC
$EndSCHEMATC
